Lab5/part3/simulation/qsim/part3.msim.vcd
$comment
	File created using the following command:
		vcd file part3.msim.vcd -direction
$end
$date
	Wed Oct 19 21:54:10 2016
$end
$version
	ModelSim Version 10.4d
$end
$timescale
	1ps
$end

$scope module part3_vlg_vec_tst $end
$var reg 1 ! clear $end
$var reg 1 " clock $end
$var reg 1 # enable $end
$var wire 1 $ count [7] $end
$var wire 1 % count [6] $end
$var wire 1 & count [5] $end
$var wire 1 ' count [4] $end
$var wire 1 ( count [3] $end
$var wire 1 ) count [2] $end
$var wire 1 * count [1] $end
$var wire 1 + count [0] $end

$scope module i1 $end
$var wire 1 , gnd $end
$var wire 1 - vcc $end
$var wire 1 . unknown $end
$var tri1 1 / devclrn $end
$var tri1 1 0 devpor $end
$var tri1 1 1 devoe $end
$var wire 1 2 ~QUARTUS_CREATED_GND~I_combout $end
$var wire 1 3 clock~input_o $end
$var wire 1 4 clock~inputCLKENA0_outclk $end
$var wire 1 5 enable~input_o $end
$var wire 1 6 U0|Q~0_combout $end
$var wire 1 7 clear~input_o $end
$var wire 1 8 U0|Q~q $end
$var wire 1 9 U1|Q~0_combout $end
$var wire 1 : U1|Q~q $end
$var wire 1 ; U2|Q~q $end
$var wire 1 < U2|Q~0_combout $end
$var wire 1 = U2|Q~DUPLICATE_q $end
$var wire 1 > U3|Q~q $end
$var wire 1 ? U3|Q~0_combout $end
$var wire 1 @ U3|Q~DUPLICATE_q $end
$var wire 1 A U4|Q~0_combout $end
$var wire 1 B U4|Q~q $end
$var wire 1 C U4|Q~DUPLICATE_q $end
$var wire 1 D U5|Q~0_combout $end
$var wire 1 E U5|Q~q $end
$var wire 1 F U5|Q~DUPLICATE_q $end
$var wire 1 G comb~0_combout $end
$var wire 1 H U6|Q~0_combout $end
$var wire 1 I U6|Q~q $end
$var wire 1 J U7|Q~0_combout $end
$var wire 1 K U7|Q~q $end
$upscope $end
$upscope $end
$enddefinitions $end
#0
$dumpvars
1!
0"
1#
0+
0*
0)
0(
0'
0&
0%
0$
0,
1-
x.
1/
10
11
02
03
04
15
16
17
08
09
0:
0;
0<
0=
0>
0?
0@
0A
0B
0C
0D
0E
0F
0G
0H
0I
0J
0K
$end
#5000
1"
13
14
18
1+
19
06
#10000
0"
03
04
#15000
1"
13
14
1:
08
0+
1*
16
#20000
0"
03
04
#25000
1"
13
14
18
1+
1<
09
06
#30000
0"
03
04
#35000
1"
13
14
1;
1=
0:
08
0+
0*
1)
16
#40000
0#
0"
05
03
04
06
#45000
1"
13
14
#50000
0"
03
04
#55000
1"
13
14
#60000
0"
03
04
#65000
1"
13
14
#70000
0"
03
04
#75000
1"
13
14
#80000
0"
03
04
#85000
1"
13
14
#90000
0"
03
04
#95000
1"
13
14
#100000
1#
0"
15
03
04
16
#105000
1"
13
14
18
1+
19
06
#110000
0"
03
04
#115000
1"
13
14
1:
08
0+
1*
16
#120000
0"
03
04
#125000
1"
13
14
18
1+
1?
0<
09
06
#130000
0"
03
04
#135000
1"
13
14
1>
0;
1@
0=
0:
08
0+
0*
0)
1(
16
#140000
0!
0"
07
03
04
0>
0@
0(
0?
#145000
1"
13
14
#150000
0"
03
04
#155000
1"
13
14
#160000
1!
0"
17
03
04
#165000
1"
13
14
18
1+
19
06
#170000
0"
03
04
#175000
1"
13
14
1:
08
0+
1*
16
#180000
0"
03
04
#185000
1"
13
14
18
1+
1<
09
06
#190000
0"
03
04
#195000
1"
13
14
1;
1=
0:
08
0+
0*
1)
16
#200000
0"
03
04
#205000
1"
13
14
18
1+
19
06
#210000
0"
03
04
#215000
1"
13
14
1:
08
0+
1*
16
#220000
0"
03
04
#225000
1"
13
14
18
1+
1?
0<
09
06
#230000
0"
03
04
#235000
1"
13
14
1>
0;
1@
0=
0:
08
0+
0*
0)
1(
16
#240000
0"
03
04
#245000
1"
13
14
18
1+
19
06
#250000
0"
03
04
#255000
1"
13
14
1:
08
0+
1*
16
#260000
0"
03
04
#265000
1"
13
14
18
1+
1<
09
06
#270000
0"
03
04
#275000
1"
13
14
1;
1=
0:
08
0+
0*
1)
16
#280000
0"
03
04
#285000
1"
13
14
18
1+
19
06
#290000
0"
03
04
#295000
1"
13
14
1:
08
0+
1*
16
#300000
0"
03
04
#305000
1"
13
14
18
1+
1G
1A
0?
0<
09
06
#310000
0"
03
04
#315000
1"
13
14
1C
0>
0;
1B
0@
0=
0:
08
0+
0*
0)
0(
1'
0G
16
#320000
0"
03
04
#325000
1"
13
14
18
1+
19
06
#330000
0"
03
04
#335000
1"
13
14
1:
08
0+
1*
16
#340000
0"
03
04
#345000
1"
13
14
18
1+
1<
09
06
#350000
0"
03
04
#355000
1"
13
14
1;
1=
0:
08
0+
0*
1)
16
#360000
0"
03
04
#365000
1"
13
14
18
1+
19
06
#370000
0"
03
04
#375000
1"
13
14
1:
08
0+
1*
16
#380000
0"
03
04
#385000
1"
13
14
18
1+
1?
0<
09
06
#390000
0"
03
04
#395000
1"
13
14
1>
0;
1@
0=
0:
08
0+
0*
0)
1(
16
#400000
0"
03
04
#405000
1"
13
14
18
1+
19
06
#410000
0"
03
04
#415000
1"
13
14
1:
08
0+
1*
16
#420000
0"
03
04
#425000
1"
13
14
18
1+
1<
09
06
#430000
0"
03
04
#435000
1"
13
14
1;
1=
0:
08
0+
0*
1)
16
#440000
0"
03
04
#445000
1"
13
14
18
1+
19
06
#450000
0"
03
04
#455000
1"
13
14
1:
08
0+
1*
16
#460000
0"
03
04
#465000
1"
13
14
18
1+
1G
1D
0A
0?
0<
09
06
#470000
0"
03
04
#475000
1"
13
14
1F
0C
0>
0;
1E
0B
0@
0=
0:
08
0+
0*
0)
0(
0'
1&
0G
16
#480000
0"
03
04
#485000
1"
13
14
18
1+
19
06
#490000
0"
03
04
#495000
1"
13
14
1:
08
0+
1*
16
#500000
0"
03
04
#505000
1"
13
14
18
1+
1<
09
06
#510000
0"
03
04
#515000
1"
13
14
1;
1=
0:
08
0+
0*
1)
16
#520000
0"
03
04
#525000
1"
13
14
18
1+
19
06
#530000
0"
03
04
#535000
1"
13
14
1:
08
0+
1*
16
#540000
0"
03
04
#545000
1"
13
14
18
1+
1?
0<
09
06
#550000
0"
03
04
#555000
1"
13
14
1>
0;
1@
0=
0:
08
0+
0*
0)
1(
16
#560000
0"
03
04
#565000
1"
13
14
18
1+
19
06
#570000
0"
03
04
#575000
1"
13
14
1:
08
0+
1*
16
#580000
0"
03
04
#585000
1"
13
14
18
1+
1<
09
06
#590000
0"
03
04
#595000
1"
13
14
1;
1=
0:
08
0+
0*
1)
16
#600000
0"
03
04
#605000
1"
13
14
18
1+
19
06
#610000
0"
03
04
#615000
1"
13
14
1:
08
0+
1*
16
#620000
0"
03
04
#625000
1"
13
14
18
1+
1G
1A
0?
0<
09
06
#630000
0"
03
04
#635000
1"
13
14
1C
0>
0;
1B
0@
0=
0:
08
0+
0*
0)
0(
1'
0G
1H
16
0H
#640000
0"
03
04
#645000
1"
13
14
18
1+
19
06
#650000
0"
03
04
#655000
1"
13
14
1:
08
0+
1*
16
#660000
0"
03
04
#665000
1"
13
14
18
1+
1<
09
06
#670000
0"
03
04
#675000
1"
13
14
1;
1=
0:
08
0+
0*
1)
16
#680000
0"
03
04
#685000
1"
13
14
18
1+
19
06
#690000
0"
03
04
#695000
1"
13
14
1:
08
0+
1*
16
#700000
0"
03
04
#705000
1"
13
14
18
1+
1?
0<
09
06
#710000
0"
03
04
#715000
1"
13
14
1>
0;
1@
0=
0:
08
0+
0*
0)
1(
16
#720000
0"
03
04
#725000
1"
13
14
18
1+
19
06
#730000
0"
03
04
#735000
1"
13
14
1:
08
0+
1*
16
#740000
0"
03
04
#745000
1"
13
14
18
1+
1<
09
06
#750000
0"
03
04
#755000
1"
13
14
1;
1=
0:
08
0+
0*
1)
16
#760000
0"
03
04
#765000
1"
13
14
18
1+
19
06
#770000
0"
03
04
#775000
1"
13
14
1:
08
0+
1*
16
#780000
0"
03
04
#785000
1"
13
14
18
1+
1G
0D
0A
0?
0<
09
06
1H
#790000
0"
03
04
#795000
1"
13
14
0F
0C
0>
0;
1I
0E
0B
0@
0=
0:
08
0+
0*
0)
0(
0'
0&
1%
0G
16
#800000
0"
03
04
#805000
1"
13
14
18
1+
19
06
#810000
0"
03
04
#815000
1"
13
14
1:
08
0+
1*
16
#820000
0"
03
04
#825000
1"
13
14
18
1+
1<
09
06
#830000
0"
03
04
#835000
1"
13
14
1;
1=
0:
08
0+
0*
1)
16
#840000
0"
03
04
#845000
1"
13
14
18
1+
19
06
#850000
0"
03
04
#855000
1"
13
14
1:
08
0+
1*
16
#860000
0"
03
04
#865000
1"
13
14
18
1+
1?
0<
09
06
#870000
0"
03
04
#875000
1"
13
14
1>
0;
1@
0=
0:
08
0+
0*
0)
1(
16
#880000
0"
03
04
#885000
1"
13
14
18
1+
19
06
#890000
0"
03
04
#895000
1"
13
14
1:
08
0+
1*
16
#900000
0"
03
04
#905000
1"
13
14
18
1+
1<
09
06
#910000
0"
03
04
#915000
1"
13
14
1;
1=
0:
08
0+
0*
1)
16
#920000
0"
03
04
#925000
1"
13
14
18
1+
19
06
#930000
0"
03
04
#935000
1"
13
14
1:
08
0+
1*
16
#940000
0"
03
04
#945000
1"
13
14
18
1+
1G
1A
0?
0<
09
06
#950000
0"
03
04
#955000
1"
13
14
1C
0>
0;
1B
0@
0=
0:
08
0+
0*
0)
0(
1'
0G
16
#960000
0"
03
04
#965000
1"
13
14
18
1+
19
06
#970000
0"
03
04
#975000
1"
13
14
1:
08
0+
1*
16
#980000
0"
03
04
#985000
1"
13
14
18
1+
1<
09
06
#990000
0#
0"
05
03
04
19
16
#995000
1"
13
14
1;
1=
1)
0<
1?
