Lab5/part5/simulation/qsim/part5.msim.vcd
$comment
	File created using the following command:
		vcd file part5.msim.vcd -direction
$end
$date
	Wed Oct 19 00:28:35 2016
$end
$version
	ModelSim Version 10.4d
$end
$timescale
	1ps
$end

$scope module part5_vlg_vec_tst $end
$var reg 1 ! CLOCK_50 $end
$var reg 10 " SW [9:0] $end
$var wire 1 # HEX0 [0] $end
$var wire 1 $ HEX0 [1] $end
$var wire 1 % HEX0 [2] $end
$var wire 1 & HEX0 [3] $end
$var wire 1 ' HEX0 [4] $end
$var wire 1 ( HEX0 [5] $end
$var wire 1 ) HEX0 [6] $end

$scope module i1 $end
$var wire 1 * gnd $end
$var wire 1 + vcc $end
$var wire 1 , unknown $end
$var tri1 1 - devclrn $end
$var tri1 1 . devpor $end
$var tri1 1 / devoe $end
$var wire 1 0 SW[2]~input_o $end
$var wire 1 1 SW[3]~input_o $end
$var wire 1 2 SW[4]~input_o $end
$var wire 1 3 SW[5]~input_o $end
$var wire 1 4 SW[6]~input_o $end
$var wire 1 5 SW[7]~input_o $end
$var wire 1 6 SW[8]~input_o $end
$var wire 1 7 SW[9]~input_o $end
$var wire 1 8 ~QUARTUS_CREATED_GND~I_combout $end
$var wire 1 9 CLOCK_50~input_o $end
$var wire 1 : CLOCK_50~inputCLKENA0_outclk $end
$var wire 1 ; N0|count[0]~3_combout $end
$var wire 1 < SW[0]~input_o $end
$var wire 1 = U0|Add0~69_sumout $end
$var wire 1 > SW[1]~input_o $end
$var wire 1 ? U0|Add0~70 $end
$var wire 1 @ U0|Add0~33_sumout $end
$var wire 1 A U0|Add0~34 $end
$var wire 1 B U0|Add0~65_sumout $end
$var wire 1 C U0|Add0~66 $end
$var wire 1 D U0|Add0~61_sumout $end
$var wire 1 E U0|Add0~62 $end
$var wire 1 F U0|Add0~5_sumout $end
$var wire 1 G U0|Add0~6 $end
$var wire 1 H U0|Add0~1_sumout $end
$var wire 1 I U0|Add0~2 $end
$var wire 1 J U0|Add0~29_sumout $end
$var wire 1 K U0|Add0~30 $end
$var wire 1 L U0|Add0~25_sumout $end
$var wire 1 M U0|Add0~26 $end
$var wire 1 N U0|Add0~21_sumout $end
$var wire 1 O U0|Add0~22 $end
$var wire 1 P U0|Add0~17_sumout $end
$var wire 1 Q U0|Add0~18 $end
$var wire 1 R U0|Add0~13_sumout $end
$var wire 1 S U0|Add0~14 $end
$var wire 1 T U0|Add0~9_sumout $end
$var wire 1 U U0|Add0~10 $end
$var wire 1 V U0|Add0~53_sumout $end
$var wire 1 W U0|Add0~54 $end
$var wire 1 X U0|Add0~49_sumout $end
$var wire 1 Y U0|Add0~50 $end
$var wire 1 Z U0|Add0~45_sumout $end
$var wire 1 [ U0|Add0~46 $end
$var wire 1 \ U0|Add0~41_sumout $end
$var wire 1 ] U0|Add0~42 $end
$var wire 1 ^ U0|Add0~37_sumout $end
$var wire 1 _ U0|Add0~38 $end
$var wire 1 ` U0|Add0~57_sumout $end
$var wire 1 a U0|Add0~58 $end
$var wire 1 b U0|Add0~101_sumout $end
$var wire 1 c U0|Add0~102 $end
$var wire 1 d U0|Add0~97_sumout $end
$var wire 1 e U0|Add0~98 $end
$var wire 1 f U0|Add0~93_sumout $end
$var wire 1 g U0|Add0~94 $end
$var wire 1 h U0|Add0~89_sumout $end
$var wire 1 i U0|Add0~90 $end
$var wire 1 j U0|Add0~85_sumout $end
$var wire 1 k U0|Add0~86 $end
$var wire 1 l U0|Add0~81_sumout $end
$var wire 1 m U0|Add0~82 $end
$var wire 1 n U0|Add0~77_sumout $end
$var wire 1 o U0|Add0~78 $end
$var wire 1 p U0|Add0~73_sumout $end
$var wire 1 q Equal0~2_combout $end
$var wire 1 r Equal0~3_combout $end
$var wire 1 s Equal0~0_combout $end
$var wire 1 t Equal0~1_combout $end
$var wire 1 u Equal0~4_combout $end
$var wire 1 v N0|count~0_combout $end
$var wire 1 w N0|count~2_combout $end
$var wire 1 x N0|count[2]~1_combout $end
$var wire 1 y N0|count[2]~DUPLICATE_q $end
$var wire 1 z comb_7|DISP[6]~0_combout $end
$var wire 1 { comb_7|DISP[5]~1_combout $end
$var wire 1 | comb_7|DISP[4]~2_combout $end
$var wire 1 } comb_7|DISP[2]~3_combout $end
$var wire 1 ~ comb_7|DISP[1]~4_combout $end
$var wire 1 !! comb_7|DISP[0]~5_combout $end
$var wire 1 "! U0|count [25] $end
$var wire 1 #! U0|count [24] $end
$var wire 1 $! U0|count [23] $end
$var wire 1 %! U0|count [22] $end
$var wire 1 &! U0|count [21] $end
$var wire 1 '! U0|count [20] $end
$var wire 1 (! U0|count [19] $end
$var wire 1 )! U0|count [18] $end
$var wire 1 *! U0|count [17] $end
$var wire 1 +! U0|count [16] $end
$var wire 1 ,! U0|count [15] $end
$var wire 1 -! U0|count [14] $end
$var wire 1 .! U0|count [13] $end
$var wire 1 /! U0|count [12] $end
$var wire 1 0! U0|count [11] $end
$var wire 1 1! U0|count [10] $end
$var wire 1 2! U0|count [9] $end
$var wire 1 3! U0|count [8] $end
$var wire 1 4! U0|count [7] $end
$var wire 1 5! U0|count [6] $end
$var wire 1 6! U0|count [5] $end
$var wire 1 7! U0|count [4] $end
$var wire 1 8! U0|count [3] $end
$var wire 1 9! U0|count [2] $end
$var wire 1 :! U0|count [1] $end
$var wire 1 ;! U0|count [0] $end
$var wire 1 <! comb_7|DISP [0] $end
$var wire 1 =! comb_7|DISP [1] $end
$var wire 1 >! comb_7|DISP [2] $end
$var wire 1 ?! comb_7|DISP [3] $end
$var wire 1 @! comb_7|DISP [4] $end
$var wire 1 A! comb_7|DISP [5] $end
$var wire 1 B! comb_7|DISP [6] $end
$var wire 1 C! N0|count [3] $end
$var wire 1 D! N0|count [2] $end
$var wire 1 E! N0|count [1] $end
$var wire 1 F! N0|count [0] $end
$upscope $end
$upscope $end
$enddefinitions $end
#0
$dumpvars
0!
b11 "
1)
0(
0'
0&
0%
0$
0#
0*
1+
x,
1-
1.
1/
00
01
02
03
04
05
06
07
08
09
0:
1;
1<
1=
1>
0?
0@
0A
0B
0C
0D
0E
0F
0G
0H
0I
0J
0K
0L
0M
0N
0O
0P
0Q
0R
0S
0T
0U
0V
0W
0X
0Y
0Z
0[
0\
0]
0^
0_
0`
0a
0b
0c
0d
0e
0f
0g
0h
0i
0j
0k
0l
0m
0n
0o
0p
0q
1r
1s
0t
0u
0v
0w
0x
0y
1z
0{
0|
0}
0~
0!!
0;!
0:!
09!
08!
07!
06!
05!
04!
03!
02!
01!
00!
0/!
0.!
0-!
0,!
0+!
0*!
0)!
0(!
0'!
0&!
0%!
0$!
0#!
0"!
zB!
zA!
z@!
0?!
z>!
z=!
z<!
0F!
0E!
0D!
0C!
$end
#1500
1!
19
1:
1;!
1?
0=
1@
#3000
0!
09
0:
#4500
1!
19
1:
1:!
0;!
0?
1t
1A
1=
0@
0A
1@
1B
0B
#6000
0!
09
0:
#7500
1!
19
1:
1;!
1?
0=
1A
0@
1B
#9000
0!
09
0:
#10500
1!
19
1:
19!
0:!
0;!
0?
0t
0A
1C
1=
1@
0B
0C
0@
1B
1D
0D
#12000
0!
09
0:
#13500
1!
19
1:
1;!
1?
0=
1@
#15000
0!
09
0:
#16500
1!
19
1:
1:!
0;!
0?
1t
1A
1=
0@
0A
1C
1@
0B
0C
1B
1D
0D
#18000
0!
09
0:
#19500
1!
19
1:
1;!
1?
0=
1A
0@
1C
0B
1D
#21000
0!
09
0:
#22500
1!
19
1:
18!
09!
0:!
0;!
1q
0?
0t
0A
0C
1E
1=
1@
1B
0D
0E
0@
0B
1D
1F
0F
#24000
0!
09
0:
#25500
1!
19
1:
1;!
0q
1?
0=
1@
#27000
0!
09
0:
#28500
1!
19
1:
1:!
0;!
1q
0?
1t
1A
1=
0@
0A
1u
1@
1B
0B
#30000
0!
09
0:
#31500
1!
19
1:
1F!
08!
0:!
0t
0q
1w
0;
0@
0D
1!!
1?!
1|
1{
1(
1'
1&
1#
0u
#33000
0!
09
0:
#34500
1!
19
1:
1;!
1?
0=
1@
#36000
0!
09
0:
#37500
1!
19
1:
1:!
0;!
0?
1t
1A
1=
0@
0A
1@
1B
0B
#39000
0!
09
0:
#40500
1!
19
1:
1;!
1?
0=
1A
0@
1B
#42000
0!
09
0:
#43500
1!
19
1:
19!
0:!
0;!
0?
0t
0A
1C
1=
1@
0B
0C
0@
1B
1D
0D
#45000
0!
09
0:
#46500
1!
19
1:
1;!
1?
0=
1@
#48000
0!
09
0:
#49500
1!
19
1:
1:!
0;!
0?
1t
1A
1=
0@
0A
1C
1@
0B
0C
1B
1D
0D
#51000
0!
09
0:
#52500
1!
19
1:
1;!
1?
0=
1A
0@
1C
0B
1D
#54000
0!
09
0:
#55500
1!
19
1:
18!
09!
0:!
0;!
1q
0?
0t
0A
0C
1E
1=
1@
1B
0D
0E
0@
0B
1D
1F
0F
#57000
0!
09
0:
#58500
1!
19
1:
1;!
0q
1?
0=
1@
#60000
0!
09
0:
#61500
1!
19
1:
1:!
0;!
1q
0?
1t
1A
1=
0@
0A
1u
1@
1B
0B
#63000
0!
09
0:
#64500
1!
19
1:
1E!
0F!
08!
0:!
0t
0q
1;
0@
0D
0!!
1}
0?!
0|
0z
0)
0'
0&
1%
0#
0u
#66000
0!
09
0:
#67500
1!
19
1:
1;!
1?
0=
1@
#69000
0!
09
0:
#70500
1!
19
1:
1:!
0;!
0?
1t
1A
1=
0@
0A
1@
1B
0B
#72000
0!
09
0:
#73500
1!
19
1:
1;!
1?
0=
1A
0@
1B
#75000
0!
09
0:
#76500
1!
19
1:
19!
0:!
0;!
0?
0t
0A
1C
1=
1@
0B
0C
0@
1B
1D
0D
#78000
0!
09
0:
#79500
1!
19
1:
1;!
1?
0=
1@
#81000
0!
09
0:
#82500
1!
19
1:
1:!
0;!
0?
1t
1A
1=
0@
0A
1C
1@
0B
0C
1B
1D
0D
#84000
0!
09
0:
#85500
1!
19
1:
1;!
1?
0=
1A
0@
1C
0B
1D
#87000
0!
09
0:
#88500
1!
19
1:
18!
09!
0:!
0;!
1q
0?
0t
0A
0C
1E
1=
1@
1B
0D
0E
0@
0B
1D
1F
0F
#90000
0!
09
0:
#91500
1!
19
1:
1;!
0q
1?
0=
1@
#93000
0!
09
0:
#94500
1!
19
1:
1:!
0;!
1q
0?
1t
1A
1=
0@
0A
1u
1@
1B
0B
#96000
0!
09
0:
#97500
1!
19
1:
1F!
08!
0:!
0t
0q
0w
0;
0@
0D
0}
1|
1x
1'
0%
0u
0x
#99000
0!
09
0:
#100500
1!
19
1:
1;!
1?
0=
1@
#102000
0!
09
0:
#103500
1!
19
1:
1:!
0;!
0?
1t
1A
1=
0@
0A
1@
1B
0B
#105000
0!
09
0:
#106500
1!
19
1:
1;!
1?
0=
1A
0@
1B
#108000
0!
09
0:
#109500
1!
19
1:
19!
0:!
0;!
0?
0t
0A
1C
1=
1@
0B
0C
0@
1B
1D
0D
#111000
0!
09
0:
#112500
1!
19
1:
1;!
1?
0=
1@
#114000
0!
09
0:
#115500
1!
19
1:
1:!
0;!
0?
1t
1A
1=
0@
0A
1C
1@
0B
0C
1B
1D
0D
#117000
0!
09
0:
#118500
1!
19
1:
1;!
1?
0=
1A
0@
1C
0B
1D
#120000
0!
09
0:
#121500
1!
19
1:
18!
09!
0:!
0;!
1q
0?
0t
0A
0C
1E
1=
1@
1B
0D
0E
0@
0B
1D
1F
0F
#123000
0!
09
0:
#124500
1!
19
1:
1;!
0q
1?
0=
1@
#126000
0!
09
0:
#127500
1!
19
1:
1:!
0;!
1q
0?
1t
1A
1=
0@
0A
1u
1@
1B
0B
1x
#129000
0!
09
0:
#130500
1!
19
1:
1y
0E!
1D!
0F!
08!
0:!
0t
0q
1;
0@
0D
1!!
1?!
0{
0(
1&
1#
0u
#132000
0!
09
0:
#133500
1!
19
1:
1;!
1?
0=
1@
#135000
0!
09
0:
#136500
1!
19
1:
1:!
0;!
0?
1t
1A
1=
0@
0A
1@
1B
0B
#138000
0!
09
0:
#139500
1!
19
1:
1;!
1?
0=
1A
0@
1B
#141000
0!
09
0:
#142500
1!
19
1:
19!
0:!
0;!
0?
0t
0A
1C
1=
1@
0B
0C
0@
1B
1D
0D
#144000
0!
09
0:
#145500
1!
19
1:
1;!
1?
0=
1@
#147000
0!
09
0:
#148500
1!
19
1:
1:!
0;!
0?
1t
1A
1=
0@
0A
1C
1@
0B
0C
1B
1D
0D
#150000
0!
09
0:
#151500
1!
19
1:
1;!
1?
0=
1A
0@
1C
0B
1D
#153000
0!
09
0:
#154500
1!
19
1:
18!
09!
0:!
0;!
1q
0?
0t
0A
0C
1E
1=
1@
1B
0D
0E
0@
0B
1D
1F
0F
#156000
0!
09
0:
#157500
1!
19
1:
1;!
0q
1?
0=
1@
#159000
0!
09
0:
#160500
1!
19
1:
1:!
0;!
1q
0?
1t
1A
1=
0@
0A
1u
1@
1B
0B
#162000
0!
09
0:
#163500
1!
19
1:
1F!
08!
0:!
0t
0q
1w
0;
0@
0D
0!!
1~
0?!
0&
1$
0#
0u
#165000
0!
09
0:
#166500
1!
19
1:
1;!
1?
0=
1@
#168000
0!
09
0:
#169500
1!
19
1:
1:!
0;!
0?
1t
1A
1=
0@
0A
1@
1B
0B
#171000
0!
09
0:
#172500
1!
19
1:
1;!
1?
0=
1A
0@
1B
#174000
0!
09
0:
#175500
1!
19
1:
19!
0:!
0;!
0?
0t
0A
1C
1=
1@
0B
0C
0@
1B
1D
0D
#177000
0!
09
0:
#178500
1!
19
1:
1;!
1?
0=
1@
#180000
0!
09
0:
#181500
1!
19
1:
1:!
0;!
0?
1t
1A
1=
0@
0A
1C
1@
0B
0C
1B
1D
0D
#183000
0!
09
0:
#184500
1!
19
1:
1;!
1?
0=
1A
0@
1C
0B
1D
#186000
0!
09
0:
#187500
1!
19
1:
18!
09!
0:!
0;!
1q
0?
0t
0A
0C
1E
1=
1@
1B
0D
0E
0@
0B
1D
1F
0F
#189000
0!
09
0:
#190500
1!
19
1:
1;!
0q
1?
0=
1@
#192000
0!
09
0:
#193500
1!
19
1:
1:!
0;!
1q
0?
1t
1A
1=
0@
0A
1u
1@
1B
0B
#195000
0!
09
0:
#196500
1!
19
1:
1E!
0F!
08!
0:!
0t
0q
1;
0@
0D
0|
0'
0u
#198000
0!
09
0:
#199500
1!
19
1:
1;!
1?
0=
1@
#201000
0!
09
0:
#202500
1!
19
1:
1:!
0;!
0?
1t
1A
1=
0@
0A
1@
1B
0B
#204000
0!
09
0:
#205500
1!
19
1:
1;!
1?
0=
1A
0@
1B
#207000
0!
09
0:
#208500
1!
19
1:
19!
0:!
0;!
0?
0t
0A
1C
1=
1@
0B
0C
0@
1B
1D
0D
#210000
0!
09
0:
#211500
1!
19
1:
1;!
1?
0=
1@
#213000
0!
09
0:
#214500
1!
19
1:
1:!
0;!
0?
1t
1A
1=
0@
0A
1C
1@
0B
0C
1B
1D
0D
#216000
0!
09
0:
#217500
1!
19
1:
1;!
1?
0=
1A
0@
1C
0B
1D
#219000
0!
09
0:
#220500
1!
19
1:
18!
09!
0:!
0;!
1q
0?
0t
0A
0C
1E
1=
1@
1B
0D
0E
0@
0B
1D
1F
0F
#222000
0!
09
0:
#223500
1!
19
1:
1;!
0q
1?
0=
1@
#225000
0!
09
0:
#226500
1!
19
1:
1:!
0;!
1q
0?
1t
1A
1=
0@
0A
1u
1@
1B
0B
#228000
0!
09
0:
#229500
1!
19
1:
1F!
08!
0:!
0t
0q
0w
1v
0;
0@
0D
0~
1?!
1|
1{
1z
0x
1)
1(
1'
1&
0$
0u
1x
#231000
0!
09
0:
#232500
1!
19
1:
1;!
1?
0=
1@
#234000
0!
09
0:
#235500
1!
19
1:
1:!
0;!
0?
1t
1A
1=
0@
0A
1@
1B
0B
#237000
0!
09
0:
#238500
1!
19
1:
1;!
1?
0=
1A
0@
1B
#240000
0!
09
0:
#241500
1!
19
1:
19!
0:!
0;!
0?
0t
0A
1C
1=
1@
0B
0C
0@
1B
1D
0D
#243000
0!
09
0:
#244500
1!
19
1:
1;!
1?
0=
1@
#246000
0!
09
0:
#247500
1!
19
1:
1:!
0;!
0?
1t
1A
1=
0@
0A
1C
1@
0B
0C
1B
1D
0D
#249000
0!
09
0:
#250500
1!
19
1:
1;!
1?
0=
1A
0@
1C
0B
1D
#252000
0!
09
0:
#253500
1!
19
1:
18!
09!
0:!
0;!
1q
0?
0t
0A
0C
1E
1=
1@
1B
0D
0E
0@
0B
1D
1F
0F
#255000
0!
09
0:
#256500
1!
19
1:
1;!
0q
1?
0=
1@
#258000
0!
09
0:
#259500
1!
19
1:
1:!
0;!
1q
0?
1t
1A
1=
0@
0A
1u
1@
1B
0B
0x
#261000
0!
09
0:
#262500
1!
19
1:
0y
0E!
1C!
0D!
0F!
08!
0:!
0t
0q
1;
0@
0D
0?!
0|
0{
0z
0)
0(
0'
0&
0u
#264000
0!
09
0:
#265500
1!
19
1:
1;!
1?
0=
1@
#267000
0!
09
0:
#268500
1!
19
1:
1:!
0;!
0?
1t
1A
1=
0@
0A
1@
1B
0B
#270000
0!
09
0:
#271500
1!
19
1:
1;!
1?
0=
1A
0@
1B
#273000
0!
09
0:
#274500
1!
19
1:
19!
0:!
0;!
0?
0t
0A
1C
1=
1@
0B
0C
0@
1B
1D
0D
#276000
0!
09
0:
#277500
1!
19
1:
1;!
1?
0=
1@
#279000
0!
09
0:
#280500
1!
19
1:
1:!
0;!
0?
1t
1A
1=
0@
0A
1C
1@
0B
0C
1B
1D
0D
#282000
0!
09
0:
#283500
1!
19
1:
1;!
1?
0=
1A
0@
1C
0B
1D
#285000
0!
09
0:
#286500
1!
19
1:
18!
09!
0:!
0;!
1q
0?
0t
0A
0C
1E
1=
1@
1B
0D
0E
0@
0B
1D
1F
0F
#288000
0!
09
0:
#289500
1!
19
1:
1;!
0q
1?
0=
1@
#291000
0!
09
0:
#292500
1!
19
1:
1:!
0;!
1q
0?
1t
1A
1=
0@
0A
1u
1@
1B
0B
#294000
0!
09
0:
#295500
1!
19
1:
1F!
08!
0:!
0t
0q
0v
0;
0@
0D
1?!
1|
1'
1&
0u
#297000
0!
09
0:
#298500
1!
19
1:
1;!
1?
0=
1@
#300000
0!
09
0:
#301500
1!
19
1:
1:!
0;!
0?
1t
1A
1=
0@
0A
1@
1B
0B
#303000
0!
09
0:
#304500
1!
19
1:
1;!
1?
0=
1A
0@
1B
#306000
0!
09
0:
#307500
1!
19
1:
19!
0:!
0;!
0?
0t
0A
1C
1=
1@
0B
0C
0@
1B
1D
0D
#309000
0!
09
0:
#310500
1!
19
1:
1;!
1?
0=
1@
#312000
0!
09
0:
#313500
1!
19
1:
1:!
0;!
0?
1t
1A
1=
0@
0A
1C
1@
0B
0C
1B
1D
0D
#315000
0!
09
0:
#316500
1!
19
1:
1;!
1?
0=
1A
0@
1C
0B
1D
#318000
0!
09
0:
#319500
1!
19
1:
18!
09!
0:!
0;!
1q
0?
0t
0A
0C
1E
1=
1@
1B
0D
0E
0@
0B
1D
1F
0F
#321000
0!
09
0:
#322500
1!
19
1:
1;!
0q
1?
0=
1@
#324000
0!
09
0:
#325500
1!
19
1:
1:!
0;!
1q
0?
1t
1A
1=
0@
0A
1u
1@
1B
0B
#327000
0!
09
0:
#328500
1!
19
1:
0C!
0F!
08!
0:!
0t
0q
1;
0@
0D
0?!
0|
1z
1)
0'
0&
0u
#330000
0!
09
0:
#331500
1!
19
1:
1;!
1?
0=
1@
#333000
0!
09
0:
#334500
1!
19
1:
1:!
0;!
0?
1t
1A
1=
0@
0A
1@
1B
0B
#336000
0!
09
0:
#337500
1!
19
1:
1;!
1?
0=
1A
0@
1B
#339000
0!
09
0:
#340500
1!
19
1:
19!
0:!
0;!
0?
0t
0A
1C
1=
1@
0B
0C
0@
1B
1D
0D
#342000
0!
09
0:
#343500
1!
19
1:
1;!
1?
0=
1@
#345000
0!
09
0:
#346500
1!
19
1:
1:!
0;!
0?
1t
1A
1=
0@
0A
1C
1@
0B
0C
1B
1D
0D
#348000
0!
09
0:
#349500
1!
19
1:
1;!
1?
0=
1A
0@
1C
0B
1D
#351000
0!
09
0:
#352500
1!
19
1:
18!
09!
0:!
0;!
1q
0?
0t
0A
0C
1E
1=
1@
1B
0D
0E
0@
0B
1D
1F
0F
#354000
0!
09
0:
#355500
1!
19
1:
1;!
0q
1?
0=
1@
#357000
0!
09
0:
#358500
1!
19
1:
1:!
0;!
1q
0?
1t
1A
1=
0@
0A
1u
1@
1B
0B
#360000
0!
09
0:
#361500
1!
19
1:
1F!
08!
0:!
0t
0q
1w
0;
0@
0D
1!!
1?!
1|
1{
1(
1'
1&
1#
0u
#363000
0!
09
0:
#364500
1!
19
1:
1;!
1?
0=
1@
#366000
0!
09
0:
#367500
1!
19
1:
1:!
0;!
0?
1t
1A
1=
0@
0A
1@
1B
0B
#369000
0!
09
0:
#370500
1!
19
1:
1;!
1?
0=
1A
0@
1B
#372000
0!
09
0:
#373500
1!
19
1:
19!
0:!
0;!
0?
0t
0A
1C
1=
1@
0B
0C
0@
1B
1D
0D
#375000
0!
09
0:
#376500
1!
19
1:
1;!
1?
0=
1@
#378000
0!
09
0:
#379500
1!
19
1:
1:!
0;!
0?
1t
1A
1=
0@
0A
1C
1@
0B
0C
1B
1D
0D
#381000
0!
09
0:
#382500
1!
19
1:
1;!
1?
0=
1A
0@
1C
0B
1D
#384000
0!
09
0:
#385500
1!
19
1:
18!
09!
0:!
0;!
1q
0?
0t
0A
0C
1E
1=
1@
1B
0D
0E
0@
0B
1D
1F
0F
#387000
0!
09
0:
#388500
1!
19
1:
1;!
0q
1?
0=
1@
#390000
0!
09
0:
#391500
1!
19
1:
1:!
0;!
1q
0?
1t
1A
1=
0@
0A
1u
1@
1B
0B
#393000
0!
09
0:
#394500
1!
19
1:
1E!
0F!
08!
0:!
0t
0q
1;
0@
0D
0!!
1}
0?!
0|
0z
0)
0'
0&
1%
0#
0u
#396000
0!
09
0:
#397500
1!
19
1:
1;!
1?
0=
1@
#399000
0!
09
0:
#400500
1!
19
1:
1:!
0;!
0?
1t
1A
1=
0@
0A
1@
1B
0B
#402000
0!
09
0:
#403500
1!
19
1:
1;!
1?
0=
1A
0@
1B
#405000
0!
09
0:
#406500
1!
19
1:
19!
0:!
0;!
0?
0t
0A
1C
1=
1@
0B
0C
0@
1B
1D
0D
#408000
0!
09
0:
#409500
1!
19
1:
1;!
1?
0=
1@
#411000
0!
09
0:
#412500
1!
19
1:
1:!
0;!
0?
1t
1A
1=
0@
0A
1C
1@
0B
0C
1B
1D
0D
#414000
0!
09
0:
#415500
1!
19
1:
1;!
1?
0=
1A
0@
1C
0B
1D
#417000
0!
09
0:
#418500
1!
19
1:
18!
09!
0:!
0;!
1q
0?
0t
0A
0C
1E
1=
1@
1B
0D
0E
0@
0B
1D
1F
0F
#420000
0!
09
0:
#421500
1!
19
1:
1;!
0q
1?
0=
1@
#423000
0!
09
0:
#424500
1!
19
1:
1:!
0;!
1q
0?
1t
1A
1=
0@
0A
1u
1@
1B
0B
#426000
0!
09
0:
#427500
1!
19
1:
1F!
08!
0:!
0t
0q
0w
0;
0@
0D
0}
1|
1x
1'
0%
0u
0x
#429000
0!
09
0:
#430500
1!
19
1:
1;!
1?
0=
1@
#432000
0!
09
0:
#433500
1!
19
1:
1:!
0;!
0?
1t
1A
1=
0@
0A
1@
1B
0B
#435000
0!
09
0:
#436500
1!
19
1:
1;!
1?
0=
1A
0@
1B
#438000
0!
09
0:
#439500
1!
19
1:
19!
0:!
0;!
0?
0t
0A
1C
1=
1@
0B
0C
0@
1B
1D
0D
#441000
0!
09
0:
#442500
1!
19
1:
1;!
1?
0=
1@
#444000
0!
09
0:
#445500
1!
19
1:
1:!
0;!
0?
1t
1A
1=
0@
0A
1C
1@
0B
0C
1B
1D
0D
#447000
0!
09
0:
#448500
1!
19
1:
1;!
1?
0=
1A
0@
1C
0B
1D
#450000
0!
09
0:
#451500
1!
19
1:
18!
09!
0:!
0;!
1q
0?
0t
0A
0C
1E
1=
1@
1B
0D
0E
0@
0B
1D
1F
0F
#453000
0!
09
0:
#454500
1!
19
1:
1;!
0q
1?
0=
1@
#456000
0!
09
0:
#457500
1!
19
1:
1:!
0;!
1q
0?
1t
1A
1=
0@
0A
1u
1@
1B
0B
1x
#459000
0!
09
0:
#460500
1!
19
1:
1y
0E!
1D!
0F!
08!
0:!
0t
0q
1;
0@
0D
1!!
1?!
0{
0(
1&
1#
0u
#462000
0!
09
0:
#463500
1!
19
1:
1;!
1?
0=
1@
#465000
0!
09
0:
#466500
1!
19
1:
1:!
0;!
0?
1t
1A
1=
0@
0A
1@
1B
0B
#468000
0!
09
0:
#469500
1!
19
1:
1;!
1?
0=
1A
0@
1B
#471000
0!
09
0:
#472500
1!
19
1:
19!
0:!
0;!
0?
0t
0A
1C
1=
1@
0B
0C
0@
1B
1D
0D
#474000
0!
09
0:
#475500
1!
19
1:
1;!
1?
0=
1@
#477000
0!
09
0:
#478500
1!
19
1:
1:!
0;!
0?
1t
1A
1=
0@
0A
1C
1@
0B
0C
1B
1D
0D
#480000
0!
09
0:
#481500
1!
19
1:
1;!
1?
0=
1A
0@
1C
0B
1D
#483000
0!
09
0:
#484500
1!
19
1:
18!
09!
0:!
0;!
1q
0?
0t
0A
0C
1E
1=
1@
1B
0D
0E
0@
0B
1D
1F
0F
#486000
0!
09
0:
#487500
1!
19
1:
1;!
0q
1?
0=
1@
#489000
0!
09
0:
#490500
1!
19
1:
1:!
0;!
1q
0?
1t
1A
1=
0@
0A
1u
1@
1B
0B
#492000
0!
09
0:
#493500
1!
19
1:
1F!
08!
0:!
0t
0q
1w
0;
0@
0D
0!!
1~
0?!
0&
1$
0#
0u
#495000
0!
09
0:
#496500
1!
19
1:
1;!
1?
0=
1@
#498000
0!
09
0:
#499500
1!
19
1:
1:!
0;!
0?
1t
1A
1=
0@
0A
1@
1B
0B
#501000
0!
09
0:
#502500
1!
19
1:
1;!
1?
0=
1A
0@
1B
#504000
0!
09
0:
#505500
1!
19
1:
19!
0:!
0;!
0?
0t
0A
1C
1=
1@
0B
0C
0@
1B
1D
0D
#507000
0!
09
0:
#508500
1!
19
1:
1;!
1?
0=
1@
#510000
0!
09
0:
#511500
1!
19
1:
1:!
0;!
0?
1t
1A
1=
0@
0A
1C
1@
0B
0C
1B
1D
0D
#513000
0!
09
0:
#514500
1!
19
1:
1;!
1?
0=
1A
0@
1C
0B
1D
#516000
0!
09
0:
#517500
1!
19
1:
18!
09!
0:!
0;!
1q
0?
0t
0A
0C
1E
1=
1@
1B
0D
0E
0@
0B
1D
1F
0F
#519000
0!
09
0:
#520500
1!
19
1:
1;!
0q
1?
0=
1@
#522000
0!
09
0:
#523500
1!
19
1:
1:!
0;!
1q
0?
1t
1A
1=
0@
0A
1u
1@
1B
0B
#525000
0!
09
0:
#526500
1!
19
1:
1E!
0F!
08!
0:!
0t
0q
1;
0@
0D
0|
0'
0u
#528000
0!
09
0:
#529500
1!
19
1:
1;!
1?
0=
1@
#531000
0!
09
0:
#532500
1!
19
1:
1:!
0;!
0?
1t
1A
1=
0@
0A
1@
1B
0B
#534000
0!
09
0:
#535500
1!
19
1:
1;!
1?
0=
1A
0@
1B
#537000
0!
09
0:
#538500
1!
19
1:
19!
0:!
0;!
0?
0t
0A
1C
1=
1@
0B
0C
0@
1B
1D
0D
#540000
0!
09
0:
#541500
1!
19
1:
1;!
1?
0=
1@
#543000
0!
09
0:
#544500
1!
19
1:
1:!
0;!
0?
1t
1A
1=
0@
0A
1C
1@
0B
0C
1B
1D
0D
#546000
0!
09
0:
#547500
1!
19
1:
1;!
1?
0=
1A
0@
1C
0B
1D
#549000
0!
09
0:
#550500
1!
19
1:
18!
09!
0:!
0;!
1q
0?
0t
0A
0C
1E
1=
1@
1B
0D
0E
0@
0B
1D
1F
0F
#552000
0!
09
0:
#553500
1!
19
1:
1;!
0q
1?
0=
1@
#555000
0!
09
0:
#556500
1!
19
1:
1:!
0;!
1q
0?
1t
1A
1=
0@
0A
1u
1@
1B
0B
#558000
0!
09
0:
#559500
1!
19
1:
1F!
08!
0:!
0t
0q
0w
1v
0;
0@
0D
0~
1?!
1|
1{
1z
0x
1)
1(
1'
1&
0$
0u
1x
#561000
0!
09
0:
#562500
1!
19
1:
1;!
1?
0=
1@
#564000
0!
09
0:
#565500
1!
19
1:
1:!
0;!
0?
1t
1A
1=
0@
0A
1@
1B
0B
#567000
0!
09
0:
#568500
1!
19
1:
1;!
1?
0=
1A
0@
1B
#570000
0!
09
0:
#571500
1!
19
1:
19!
0:!
0;!
0?
0t
0A
1C
1=
1@
0B
0C
0@
1B
1D
0D
#573000
0!
09
0:
#574500
1!
19
1:
1;!
1?
0=
1@
#576000
0!
09
0:
#577500
1!
19
1:
1:!
0;!
0?
1t
1A
1=
0@
0A
1C
1@
0B
0C
1B
1D
0D
#579000
0!
09
0:
#580500
1!
19
1:
1;!
1?
0=
1A
0@
1C
0B
1D
#582000
0!
09
0:
#583500
1!
19
1:
18!
09!
0:!
0;!
1q
0?
0t
0A
0C
1E
1=
1@
1B
0D
0E
0@
0B
1D
1F
0F
#585000
0!
09
0:
#586500
1!
19
1:
1;!
0q
1?
0=
1@
#588000
0!
09
0:
#589500
1!
19
1:
1:!
0;!
1q
0?
1t
1A
1=
0@
0A
1u
1@
1B
0B
0x
#591000
0!
09
0:
#592500
1!
19
1:
0y
0E!
1C!
0D!
0F!
08!
0:!
0t
0q
1;
0@
0D
0?!
0|
0{
0z
0)
0(
0'
0&
0u
#594000
0!
09
0:
#595500
1!
19
1:
1;!
1?
0=
1@
#597000
0!
09
0:
#598500
1!
19
1:
1:!
0;!
0?
1t
1A
1=
0@
0A
1@
1B
0B
#600000
0!
09
0:
