Lab5/part1/simulation/qsim/part1.msim.vcd
$comment
	File created using the following command:
		vcd file part1.msim.vcd -direction
$end
$date
	Wed Oct 19 21:59:50 2016
$end
$version
	ModelSim Version 10.4d
$end
$timescale
	1ps
$end

$scope module part1_vlg_vec_tst $end
$var reg 1 ! Clk $end
$var reg 1 " D $end
$var wire 1 # Qa $end
$var wire 1 $ Qb $end
$var wire 1 % Qc $end

$scope module i1 $end
$var wire 1 & gnd $end
$var wire 1 ' vcc $end
$var wire 1 ( unknown $end
$var tri1 1 ) devclrn $end
$var tri1 1 * devpor $end
$var tri1 1 + devoe $end
$var wire 1 , ~QUARTUS_CREATED_GND~I_combout $end
$var wire 1 - D~input_o $end
$var wire 1 . Clk~input_o $end
$var wire 1 / Qa$latch~combout $end
$var wire 1 0 Clk~inputCLKENA0_outclk $end
$var wire 1 1 Qb~reg0_q $end
$var wire 1 2 Qc~reg0_q $end
$upscope $end
$upscope $end
$enddefinitions $end
#0
$dumpvars
0!
0"
x#
0$
0%
0&
1'
x(
1)
1*
1+
0,
0-
0.
x/
00
01
02
$end
#50000
1!
1.
10
0/
0#
#70000
1"
1-
1/
1#
#100000
0!
0.
00
12
1%
#140000
0"
0-
#150000
1!
1.
10
0/
0#
#160000
1"
1-
1/
1#
#180000
0"
0-
0/
0#
#200000
0!
0.
00
02
0%
#220000
1"
1-
#250000
1!
0"
1.
0-
10
#270000
1"
1-
1/
1#
#290000
0"
0-
0/
0#
#300000
0!
0.
00
#350000
1"
1!
1-
1.
10
1/
1#
11
1$
#370000
0"
0-
0/
0#
#390000
1"
1-
1/
1#
#400000
0!
0.
00
12
1%
#450000
1!
1.
10
#500000
0!
0.
00
#520000
0"
0-
#550000
1!
1.
10
0/
0#
01
0$
#570000
1"
1-
1/
1#
#600000
0!
0.
00
#650000
1!
1.
10
11
1$
#700000
0!
0.
00
#750000
1!
1.
10
#800000
0!
0.
00
#840000
0"
0-
#850000
1!
1.
10
0/
0#
01
0$
#900000
0!
0.
00
02
0%
#950000
1!
1.
10
