Lab6/part2/simulation/qsim/part2.msim.vcd
$comment
	File created using the following command:
		vcd file part2.msim.vcd -direction
$end
$date
	Wed Nov 02 21:16:40 2016
$end
$version
	ModelSim Version 10.4d
$end
$timescale
	1ps
$end

$scope module part2_vlg_vec_tst $end
$var reg 4 ! KEY [3:0] $end
$var reg 10 " SW [9:0] $end
$var wire 1 # LEDR [9] $end
$var wire 1 $ LEDR [8] $end
$var wire 1 % LEDR [7] $end
$var wire 1 & LEDR [6] $end
$var wire 1 ' LEDR [5] $end
$var wire 1 ( LEDR [4] $end
$var wire 1 ) LEDR [3] $end
$var wire 1 * LEDR [2] $end
$var wire 1 + LEDR [1] $end
$var wire 1 , LEDR [0] $end

$scope module i1 $end
$var wire 1 - gnd $end
$var wire 1 . vcc $end
$var wire 1 / unknown $end
$var tri1 1 0 devclrn $end
$var tri1 1 1 devpor $end
$var tri1 1 2 devoe $end
$var wire 1 3 SW[2]~input_o $end
$var wire 1 4 SW[3]~input_o $end
$var wire 1 5 SW[4]~input_o $end
$var wire 1 6 SW[5]~input_o $end
$var wire 1 7 SW[6]~input_o $end
$var wire 1 8 SW[7]~input_o $end
$var wire 1 9 SW[8]~input_o $end
$var wire 1 : SW[9]~input_o $end
$var wire 1 ; KEY[1]~input_o $end
$var wire 1 < KEY[2]~input_o $end
$var wire 1 = KEY[3]~input_o $end
$var wire 1 > ~QUARTUS_CREATED_GND~I_combout $end
$var wire 1 ? KEY[0]~input_o $end
$var wire 1 @ KEY[0]~inputCLKENA0_outclk $end
$var wire 1 A SW[1]~input_o $end
$var wire 1 B SW[0]~input_o $end
$var wire 1 C y~18_combout $end
$var wire 1 D y.C~q $end
$var wire 1 E y~15_combout $end
$var wire 1 F y.D~q $end
$var wire 1 G y~20_combout $end
$var wire 1 H y.E~q $end
$var wire 1 I y~14_combout $end
$var wire 1 J y.B~q $end
$var wire 1 K y~19_combout $end
$var wire 1 L y.G~q $end
$var wire 1 M y~17_combout $end
$var wire 1 N y.H~q $end
$var wire 1 O y~21_combout $end
$var wire 1 P y.I~q $end
$var wire 1 Q y~16_combout $end
$var wire 1 R y.F~q $end
$var wire 1 S WideOr2~combout $end
$var wire 1 T WideOr1~combout $end
$var wire 1 U WideOr0~combout $end
$var wire 1 V z~0_combout $end
$upscope $end
$upscope $end
$enddefinitions $end
#0
$dumpvars
b0 !
b0 "
0,
0+
0*
0)
0(
0'
0&
0%
0$
0#
0-
1.
x/
10
11
12
03
04
05
06
07
08
09
0:
0;
0<
0=
0>
0?
0@
0A
0B
0C
0D
0E
0F
0G
0H
0I
0J
0K
0L
0M
0N
0O
0P
0Q
0R
0S
0T
0U
0V
$end
#10000
b1 !
1?
1@
#20000
b0 !
0?
0@
#30000
b1 !
1?
1@
#40000
b0 !
0?
0@
#50000
b1 !
1?
1@
#60000
b0 !
0?
0@
#70000
b1 !
1?
1@
#80000
b0 !
0?
0@
#90000
b1 !
1?
1@
#100000
b1 "
b0 !
0?
1B
0@
1I
#110000
b1 !
1?
1@
1J
1S
0I
1C
1,
#120000
b0 !
0?
0@
#130000
b1 !
1?
1@
0J
1D
1T
1E
0S
0C
0,
1+
#140000
b0 !
0?
0@
#150000
b11 "
b1 !
1?
1A
1@
1Q
0E
1F
0D
1S
1,
#160000
b0 !
0?
0@
#170000
b1 "
b1 !
1?
0A
1@
0Q
1G
1R
0F
0T
1I
0G
1U
1*
0+
#180000
b0 !
0?
0@
#190000
b1 !
1?
1@
0R
1J
0I
1C
0U
0*
#200000
b0 !
0?
0@
#210000
b1 !
1?
1@
0J
1D
1T
1E
0S
0C
0,
1+
#220000
b0 !
0?
0@
#230000
b1 !
1?
1@
1F
0D
0E
1S
1G
1,
#240000
b0 !
0?
0@
#250000
b1 !
1?
1@
1H
0F
0T
0S
1V
1U
1*
1#
0,
0+
#260000
b0 !
0?
0@
#270000
b1 !
1?
1@
#280000
b0 !
0?
0@
#290000
b1 !
1?
1@
#300000
b0 !
0?
0@
#310000
b1 !
1?
1@
#320000
b0 !
0?
0@
#330000
b1 !
1?
1@
#340000
b0 !
0?
0@
#350000
b1 !
1?
1@
#360000
b11 "
b0 !
0?
1A
0@
1Q
0G
#370000
b1 !
1?
1@
1R
0H
0V
1S
0Q
1K
1,
0#
#380000
b0 !
0?
0@
#390000
b1 !
1?
1@
0R
1L
1T
1M
0S
0K
0,
1+
#400000
b0 !
0?
0@
#410000
b1 !
1?
1@
1N
0L
0M
1S
1O
1,
#420000
b0 !
0?
0@
#430000
b1 !
1?
1@
0N
1P
1)
0U
0T
0S
1V
1#
0,
0+
0*
#440000
b0 !
0?
0@
#450000
b1 !
1?
1@
#460000
b0 !
0?
0@
#470000
b1 !
1?
1@
#480000
b0 !
0?
0@
#490000
b1 !
1?
1@
#500000
b0 !
0?
0@
#510000
b1 !
1?
1@
#520000
b0 !
0?
0@
#530000
b1 !
1?
1@
#540000
b0 !
0?
0@
#550000
b1 !
1?
1@
#560000
b1 "
b0 !
0?
0A
0@
0O
1I
#570000
b1 !
1?
1@
1J
0P
0)
1S
0I
1C
0V
0#
1,
#580000
b0 !
0?
0@
#590000
b1 !
1?
1@
0J
1D
1T
1E
0S
0C
0,
1+
#600000
b0 !
0?
0@
#610000
b0 "
b1 !
1?
0B
1@
0E
1F
0D
1S
1,
#620000
b0 !
0?
0@
#630000
b1 !
1?
1@
0F
0T
0S
0,
0+
#640000
b0 !
0?
0@
#650000
b1 !
1?
1@
#660000
b0 !
0?
0@
#670000
b1 !
1?
1@
#680000
b0 !
0?
0@
#690000
b1 !
1?
1@
#700000
b1 "
b0 !
0?
1B
0@
1I
#710000
b1 !
1?
1@
1J
1S
0I
1C
1,
#720000
b0 !
0?
0@
#730000
b1 !
1?
1@
0J
1D
1T
1E
0S
0C
0,
1+
#740000
b0 !
0?
0@
#750000
b1 !
1?
1@
1F
0D
0E
1S
1G
1,
#760000
b0 !
0?
0@
#770000
b1 !
1?
1@
1H
0F
0T
0S
1V
1U
1*
1#
0,
0+
#780000
b0 !
0?
0@
#790000
b1 !
1?
1@
#800000
b0 !
0?
0@
#810000
b1 !
1?
1@
#820000
b0 !
0?
0@
#830000
b1 !
1?
1@
#840000
b0 !
0?
0@
#850000
b1 !
1?
1@
#860000
b0 !
0?
0@
#870000
b1 !
1?
1@
#880000
b0 !
0?
0@
#890000
b1 !
1?
1@
#900000
b0 !
0?
0@
#910000
b1 !
1?
1@
#920000
b0 !
0?
0@
#930000
b1 !
1?
1@
#940000
b0 !
0?
0@
#950000
b1 !
1?
1@
#960000
b0 !
0?
0@
#970000
b1 !
1?
1@
#980000
b0 !
0?
0@
#990000
b1 !
1?
1@
