Lab6/part1.2/simulation/qsim/part12.msim.vcd
$comment
	File created using the following command:
		vcd file part12.msim.vcd -direction
$end
$date
	Sat Oct 29 23:23:49 2016
$end
$version
	ModelSim Version 10.4d
$end
$timescale
	1ps
$end

$scope module part12_vlg_vec_tst $end
$var reg 4 ! KEY [3:0] $end
$var reg 10 " SW [9:0] $end
$var wire 1 # LEDR [9] $end
$var wire 1 $ LEDR [8] $end
$var wire 1 % LEDR [7] $end
$var wire 1 & LEDR [6] $end
$var wire 1 ' LEDR [5] $end
$var wire 1 ( LEDR [4] $end
$var wire 1 ) LEDR [3] $end
$var wire 1 * LEDR [2] $end
$var wire 1 + LEDR [1] $end
$var wire 1 , LEDR [0] $end
$var wire 1 - Y [8] $end
$var wire 1 . Y [7] $end
$var wire 1 / Y [6] $end
$var wire 1 0 Y [5] $end
$var wire 1 1 Y [4] $end
$var wire 1 2 Y [3] $end
$var wire 1 3 Y [2] $end
$var wire 1 4 Y [1] $end
$var wire 1 5 Y [0] $end
$var wire 1 6 y [8] $end
$var wire 1 7 y [7] $end
$var wire 1 8 y [6] $end
$var wire 1 9 y [5] $end
$var wire 1 : y [4] $end
$var wire 1 ; y [3] $end
$var wire 1 < y [2] $end
$var wire 1 = y [1] $end
$var wire 1 > y [0] $end

$scope module i1 $end
$var wire 1 ? gnd $end
$var wire 1 @ vcc $end
$var wire 1 A unknown $end
$var tri1 1 B devclrn $end
$var tri1 1 C devpor $end
$var tri1 1 D devoe $end
$var wire 1 E SW[2]~input_o $end
$var wire 1 F SW[3]~input_o $end
$var wire 1 G SW[4]~input_o $end
$var wire 1 H SW[5]~input_o $end
$var wire 1 I SW[6]~input_o $end
$var wire 1 J SW[7]~input_o $end
$var wire 1 K SW[8]~input_o $end
$var wire 1 L SW[9]~input_o $end
$var wire 1 M KEY[1]~input_o $end
$var wire 1 N KEY[2]~input_o $end
$var wire 1 O KEY[3]~input_o $end
$var wire 1 P ~QUARTUS_CREATED_GND~I_combout $end
$var wire 1 Q KEY[0]~input_o $end
$var wire 1 R KEY[0]~inputCLKENA0_outclk $end
$var wire 1 S SW[0]~input_o $end
$var wire 1 T A1|Q~q $end
$var wire 1 U SW[1]~input_o $end
$var wire 1 V Y~9_combout $end
$var wire 1 W Y~1_combout $end
$var wire 1 X A3|Q~q $end
$var wire 1 Y Y~2_combout $end
$var wire 1 Z A4|Q~q $end
$var wire 1 [ Y~3_combout $end
$var wire 1 \ A5|Q~q $end
$var wire 1 ] Y~4_combout $end
$var wire 1 ^ A6|Q~feeder_combout $end
$var wire 1 _ A6|Q~q $end
$var wire 1 ` Y~5_combout $end
$var wire 1 a A7|Q~q $end
$var wire 1 b Y~8_combout $end
$var wire 1 c Y~6_combout $end
$var wire 1 d A8|Q~q $end
$var wire 1 e Y~7_combout $end
$var wire 1 f A9|Q~q $end
$var wire 1 g Y~0_combout $end
$var wire 1 h A2|Q~feeder_combout $end
$var wire 1 i A2|Q~q $end
$var wire 1 j z~0_combout $end
$upscope $end
$upscope $end
$enddefinitions $end
#0
$dumpvars
b0 !
b0 "
0,
0+
0*
0)
0(
0'
0&
0%
0$
0#
05
04
03
02
01
00
0/
0.
0-
0>
0=
0<
0;
0:
09
08
07
06
0?
1@
xA
1B
1C
1D
0E
0F
0G
0H
0I
0J
0K
0L
0M
0N
0O
0P
0Q
0R
0S
0T
0U
0V
0W
0X
0Y
0Z
0[
0\
0]
0^
0_
0`
0a
0b
0c
0d
0e
0f
0g
0h
0i
0j
$end
#20000
b1 !
1Q
1R
#40000
b0 !
0Q
0R
#60000
b1 !
1Q
1R
#80000
b0 !
0Q
0R
#100000
b1 "
b1 !
1Q
1R
1S
15
1b
1g
14
1h
#120000
b0 !
0Q
0R
#140000
b1 !
1Q
1R
1i
1T
1,
1>
1+
1=
0g
1W
13
04
0h
#160000
b0 !
0Q
0R
#180000
b1 !
1Q
1R
0i
1X
1*
1<
0+
0=
1Y
0W
03
12
#200000
b0 !
0Q
0R
#220000
b1 !
1Q
1R
1Z
0X
0*
0<
1)
1;
0Y
1[
11
02
#240000
b0 !
0Q
0R
#260000
b1 !
1Q
1R
1\
0Z
0)
0;
1(
1:
1j
1#
#270000
b11 "
1U
0b
1V
0[
01
1]
10
1^
#280000
b0 !
0Q
0R
#300000
b1 !
1Q
1R
1_
0\
0(
0:
1'
19
0j
0]
1`
1/
00
0#
0^
#320000
b0 !
0Q
0R
#340000
b1 !
1Q
1R
1a
0_
0'
09
1&
18
0`
1c
1.
0/
#360000
b0 !
0Q
0R
#380000
b1 !
1Q
1R
1d
0a
0&
08
1%
17
0c
1e
1-
0.
#400000
b0 !
0Q
0R
#420000
b1 !
1Q
1R
1f
0d
0%
07
1$
16
1j
1#
#440000
b0 !
0Q
0R
#460000
b1 !
1Q
1R
#480000
b0 !
0Q
0R
#500000
b1 !
1Q
1R
#520000
b0 !
0Q
0R
#540000
b1 !
1Q
1R
#560000
b0 !
0Q
0R
#580000
b1 !
1Q
1R
#590000
b1 "
0U
1b
0V
0e
0-
1g
14
1h
#600000
b0 !
0Q
0R
#620000
b1 !
1Q
1R
1i
0f
0$
06
1+
1=
0j
0g
1W
13
04
0#
0h
#640000
b0 !
0Q
0R
#660000
b1 !
1Q
1R
0i
1X
1*
1<
0+
0=
1Y
0W
03
12
#680000
b0 !
0Q
0R
#700000
b0 "
b1 !
1Q
1R
0S
05
0b
0Y
02
1Z
0X
0*
0<
1)
1;
#720000
b0 !
0Q
0R
#740000
b1 !
1Q
1R
0Z
0T
0,
0>
0)
0;
#760000
b0 !
0Q
0R
#780000
b1 !
1Q
1R
#790000
b1 "
1S
15
1b
1g
14
1h
#800000
b0 !
0Q
0R
#820000
b1 !
1Q
1R
1i
1T
1,
1>
1+
1=
0g
1W
13
04
0h
#840000
b0 !
0Q
0R
#860000
b1 !
1Q
1R
0i
1X
1*
1<
0+
0=
1Y
0W
03
12
#880000
b0 !
0Q
0R
#900000
b1 !
1Q
1R
1Z
0X
0*
0<
1)
1;
0Y
1[
11
02
#920000
b0 !
0Q
0R
#940000
b1 !
1Q
1R
1\
0Z
0)
0;
1(
1:
1j
1#
#960000
b0 !
0Q
0R
#980000
b1 !
1Q
1R
