Lab5/part6/simulation/qsim/part6.msim.vcd
$comment
	File created using the following command:
		vcd file part6.msim.vcd -direction
$end
$date
	Wed Oct 19 00:38:41 2016
$end
$version
	ModelSim Version 10.4d
$end
$timescale
	1ps
$end

$scope module part6_vlg_vec_tst $end
$var reg 1 ! CLOCK_50 $end
$var reg 10 " SW [9:0] $end
$var wire 1 # HEX0 [0] $end
$var wire 1 $ HEX0 [1] $end
$var wire 1 % HEX0 [2] $end
$var wire 1 & HEX0 [3] $end
$var wire 1 ' HEX0 [4] $end
$var wire 1 ( HEX0 [5] $end
$var wire 1 ) HEX0 [6] $end
$var wire 1 * HEX1 [0] $end
$var wire 1 + HEX1 [1] $end
$var wire 1 , HEX1 [2] $end
$var wire 1 - HEX1 [3] $end
$var wire 1 . HEX1 [4] $end
$var wire 1 / HEX1 [5] $end
$var wire 1 0 HEX1 [6] $end
$var wire 1 1 HEX2 [0] $end
$var wire 1 2 HEX2 [1] $end
$var wire 1 3 HEX2 [2] $end
$var wire 1 4 HEX2 [3] $end
$var wire 1 5 HEX2 [4] $end
$var wire 1 6 HEX2 [5] $end
$var wire 1 7 HEX2 [6] $end
$var wire 1 8 HEX3 [0] $end
$var wire 1 9 HEX3 [1] $end
$var wire 1 : HEX3 [2] $end
$var wire 1 ; HEX3 [3] $end
$var wire 1 < HEX3 [4] $end
$var wire 1 = HEX3 [5] $end
$var wire 1 > HEX3 [6] $end
$var wire 1 ? HEX4 [0] $end
$var wire 1 @ HEX4 [1] $end
$var wire 1 A HEX4 [2] $end
$var wire 1 B HEX4 [3] $end
$var wire 1 C HEX4 [4] $end
$var wire 1 D HEX4 [5] $end
$var wire 1 E HEX4 [6] $end
$var wire 1 F HEX5 [0] $end
$var wire 1 G HEX5 [1] $end
$var wire 1 H HEX5 [2] $end
$var wire 1 I HEX5 [3] $end
$var wire 1 J HEX5 [4] $end
$var wire 1 K HEX5 [5] $end
$var wire 1 L HEX5 [6] $end

$scope module i1 $end
$var wire 1 M gnd $end
$var wire 1 N vcc $end
$var wire 1 O unknown $end
$var tri1 1 P devclrn $end
$var tri1 1 Q devpor $end
$var tri1 1 R devoe $end
$var wire 1 S SW[2]~input_o $end
$var wire 1 T SW[3]~input_o $end
$var wire 1 U SW[4]~input_o $end
$var wire 1 V SW[5]~input_o $end
$var wire 1 W SW[6]~input_o $end
$var wire 1 X SW[7]~input_o $end
$var wire 1 Y SW[8]~input_o $end
$var wire 1 Z SW[9]~input_o $end
$var wire 1 [ ~QUARTUS_CREATED_GND~I_combout $end
$var wire 1 \ CLOCK_50~input_o $end
$var wire 1 ] CLOCK_50~inputCLKENA0_outclk $end
$var wire 1 ^ N0|count[0]~3_combout $end
$var wire 1 _ SW[0]~input_o $end
$var wire 1 ` M0|Add0~101_sumout $end
$var wire 1 a SW[1]~input_o $end
$var wire 1 b M0|Add0~102 $end
$var wire 1 c M0|Add0~13_sumout $end
$var wire 1 d M0|Add0~14 $end
$var wire 1 e M0|Add0~97_sumout $end
$var wire 1 f M0|Add0~98 $end
$var wire 1 g M0|Add0~93_sumout $end
$var wire 1 h M0|Add0~94 $end
$var wire 1 i M0|Add0~89_sumout $end
$var wire 1 j M0|Add0~90 $end
$var wire 1 k M0|Add0~85_sumout $end
$var wire 1 l M0|Add0~86 $end
$var wire 1 m M0|Add0~81_sumout $end
$var wire 1 n Equal0~3_combout $end
$var wire 1 o M0|Add0~82 $end
$var wire 1 p M0|Add0~73_sumout $end
$var wire 1 q M0|Add0~74 $end
$var wire 1 r M0|Add0~69_sumout $end
$var wire 1 s M0|Add0~70 $end
$var wire 1 t M0|Add0~65_sumout $end
$var wire 1 u M0|Add0~66 $end
$var wire 1 v M0|Add0~61_sumout $end
$var wire 1 w M0|Add0~62 $end
$var wire 1 x M0|Add0~57_sumout $end
$var wire 1 y M0|Add0~58 $end
$var wire 1 z M0|Add0~5_sumout $end
$var wire 1 { M0|Add0~6 $end
$var wire 1 | M0|Add0~1_sumout $end
$var wire 1 } M0|Add0~2 $end
$var wire 1 ~ M0|Add0~29_sumout $end
$var wire 1 !! M0|Add0~30 $end
$var wire 1 "! M0|Add0~25_sumout $end
$var wire 1 #! M0|Add0~26 $end
$var wire 1 $! M0|Add0~21_sumout $end
$var wire 1 %! M0|Add0~22 $end
$var wire 1 &! M0|Add0~17_sumout $end
$var wire 1 '! M0|Add0~18 $end
$var wire 1 (! M0|Add0~77_sumout $end
$var wire 1 )! Equal0~2_combout $end
$var wire 1 *! M0|Add0~78 $end
$var wire 1 +! M0|Add0~9_sumout $end
$var wire 1 ,! M0|Add0~10 $end
$var wire 1 -! M0|Add0~53_sumout $end
$var wire 1 .! M0|Add0~54 $end
$var wire 1 /! M0|Add0~49_sumout $end
$var wire 1 0! M0|Add0~50 $end
$var wire 1 1! M0|Add0~45_sumout $end
$var wire 1 2! M0|Add0~46 $end
$var wire 1 3! M0|Add0~41_sumout $end
$var wire 1 4! M0|Add0~42 $end
$var wire 1 5! M0|Add0~37_sumout $end
$var wire 1 6! M0|Add0~38 $end
$var wire 1 7! M0|Add0~33_sumout $end
$var wire 1 8! Equal0~1_combout $end
$var wire 1 9! Equal0~0_combout $end
$var wire 1 :! Equal0~4_combout $end
$var wire 1 ;! N0|count~1_combout $end
$var wire 1 <! N0|count[3]~2_combout $end
$var wire 1 =! N0|count~0_combout $end
$var wire 1 >! N0|count[2]~DUPLICATE_q $end
$var wire 1 ?! comb~0_combout $end
$var wire 1 @! comb~1_combout $end
$var wire 1 A! HEX5[6]$latch~combout $end
$var wire 1 B! comb~2_combout $end
$var wire 1 C! comb~3_combout $end
$var wire 1 D! HEX5[5]$latch~combout $end
$var wire 1 E! HEX5[4]$latch~combout $end
$var wire 1 F! HEX5[3]$latch~combout $end
$var wire 1 G! comb~4_combout $end
$var wire 1 H! Equal5~0_combout $end
$var wire 1 I! HEX5[2]$latch~combout $end
$var wire 1 J! HEX5[1]$latch~combout $end
$var wire 1 K! HEX5[0]$latch~combout $end
$var wire 1 L! HEX4[6]$latch~combout $end
$var wire 1 M! comb~6_combout $end
$var wire 1 N! comb~5_combout $end
$var wire 1 O! HEX4[5]$latch~combout $end
$var wire 1 P! HEX4[4]$latch~combout $end
$var wire 1 Q! HEX4[3]$latch~combout $end
$var wire 1 R! comb~7_combout $end
$var wire 1 S! Equal4~0_combout $end
$var wire 1 T! HEX4[2]$latch~combout $end
$var wire 1 U! HEX4[1]$latch~combout $end
$var wire 1 V! HEX4[0]$latch~combout $end
$var wire 1 W! HEX3[6]$latch~combout $end
$var wire 1 X! Equal2~0_combout $end
$var wire 1 Y! comb~8_combout $end
$var wire 1 Z! HEX3[5]$latch~combout $end
$var wire 1 [! HEX3[4]$latch~combout $end
$var wire 1 \! HEX3[3]$latch~combout $end
$var wire 1 ]! Equal3~0_combout $end
$var wire 1 ^! comb~9_combout $end
$var wire 1 _! HEX3[2]$latch~combout $end
$var wire 1 `! HEX3[1]$latch~combout $end
$var wire 1 a! HEX3[0]$latch~combout $end
$var wire 1 b! HEX2[6]$latch~combout $end
$var wire 1 c! comb~11_combout $end
$var wire 1 d! comb~10_combout $end
$var wire 1 e! HEX2[5]$latch~combout $end
$var wire 1 f! HEX2[4]$latch~combout $end
$var wire 1 g! HEX2[3]$latch~combout $end
$var wire 1 h! comb~12_combout $end
$var wire 1 i! Equal2~1_combout $end
$var wire 1 j! HEX2[2]$latch~combout $end
$var wire 1 k! HEX2[1]$latch~combout $end
$var wire 1 l! HEX2[0]$latch~combout $end
$var wire 1 m! HEX1[6]$latch~combout $end
$var wire 1 n! comb~14_combout $end
$var wire 1 o! comb~13_combout $end
$var wire 1 p! HEX1[5]$latch~combout $end
$var wire 1 q! HEX1[4]$latch~combout $end
$var wire 1 r! HEX1[3]$latch~combout $end
$var wire 1 s! Equal1~0_combout $end
$var wire 1 t! comb~15_combout $end
$var wire 1 u! HEX1[2]$latch~combout $end
$var wire 1 v! HEX1[1]$latch~combout $end
$var wire 1 w! HEX1[0]$latch~combout $end
$var wire 1 x! HEX0[6]$latch~combout $end
$var wire 1 y! comb~17_combout $end
$var wire 1 z! comb~16_combout $end
$var wire 1 {! HEX0[5]$latch~combout $end
$var wire 1 |! HEX0[4]$latch~combout $end
$var wire 1 }! HEX0[3]$latch~combout $end
$var wire 1 ~! HEX0[2]$latch~combout $end
$var wire 1 !" HEX0[1]$latch~combout $end
$var wire 1 "" HEX0[0]$latch~combout $end
$var wire 1 #" M0|count [25] $end
$var wire 1 $" M0|count [24] $end
$var wire 1 %" M0|count [23] $end
$var wire 1 &" M0|count [22] $end
$var wire 1 '" M0|count [21] $end
$var wire 1 (" M0|count [20] $end
$var wire 1 )" M0|count [19] $end
$var wire 1 *" M0|count [18] $end
$var wire 1 +" M0|count [17] $end
$var wire 1 ," M0|count [16] $end
$var wire 1 -" M0|count [15] $end
$var wire 1 ." M0|count [14] $end
$var wire 1 /" M0|count [13] $end
$var wire 1 0" M0|count [12] $end
$var wire 1 1" M0|count [11] $end
$var wire 1 2" M0|count [10] $end
$var wire 1 3" M0|count [9] $end
$var wire 1 4" M0|count [8] $end
$var wire 1 5" M0|count [7] $end
$var wire 1 6" M0|count [6] $end
$var wire 1 7" M0|count [5] $end
$var wire 1 8" M0|count [4] $end
$var wire 1 9" M0|count [3] $end
$var wire 1 :" M0|count [2] $end
$var wire 1 ;" M0|count [1] $end
$var wire 1 <" M0|count [0] $end
$var wire 1 =" N0|count [3] $end
$var wire 1 >" N0|count [2] $end
$var wire 1 ?" N0|count [1] $end
$var wire 1 @" N0|count [0] $end
$upscope $end
$upscope $end
$enddefinitions $end
#0
$dumpvars
0!
b11 "
1)
1(
1'
1&
0%
0$
1#
00
0/
0.
0-
1,
1+
0*
07
16
05
04
03
02
11
0>
0=
0<
0;
0:
09
08
0E
0D
0C
0B
0A
0@
0?
0L
0K
0J
0I
0H
0G
0F
0M
1N
xO
1P
1Q
1R
0S
0T
0U
0V
0W
0X
0Y
0Z
0[
0\
0]
1^
1_
1`
1a
0b
0c
0d
0e
0f
0g
0h
0i
0j
0k
0l
0m
0n
0o
0p
0q
0r
0s
0t
0u
0v
0w
0x
0y
0z
0{
0|
0}
0~
0!!
0"!
0#!
0$!
0%!
0&!
0'!
0(!
1)!
0*!
0+!
0,!
0-!
0.!
0/!
00!
01!
02!
03!
04!
05!
06!
07!
18!
09!
0:!
0;!
0<!
0=!
0>!
1?!
0@!
0A!
1B!
0C!
0D!
0E!
0F!
1G!
0H!
0I!
0J!
0K!
0L!
0M!
1N!
0O!
0P!
0Q!
1R!
0S!
0T!
0U!
0V!
0W!
0X!
1Y!
0Z!
0[!
0\!
0]!
1^!
0_!
0`!
0a!
0b!
0c!
0d!
1e!
0f!
0g!
1h!
0i!
0j!
0k!
1l!
0m!
0n!
1o!
0p!
0q!
0r!
0s!
0t!
1u!
1v!
0w!
1x!
0y!
0z!
1{!
1|!
1}!
0~!
0!"
1""
0<"
0;"
0:"
09"
08"
07"
06"
05"
04"
03"
02"
01"
00"
0/"
0."
0-"
0,"
0+"
0*"
0)"
0("
0'"
0&"
0%"
0$"
0#"
0@"
0?"
0>"
0="
$end
#2500
1!
1\
1]
1<"
1b
0`
1c
#5000
0!
0\
0]
#7500
1!
1\
1]
1;"
0<"
0b
19!
1d
1`
0c
0d
1c
1e
0e
#10000
0!
0\
0]
#12500
1!
1\
1]
1<"
1b
0`
1d
0c
1e
#15000
0!
0\
0]
#17500
1!
1\
1]
1:"
0;"
0<"
0b
09!
0d
1f
1`
1c
0e
0f
0c
1e
1g
0g
#20000
0!
0\
0]
#22500
1!
1\
1]
1<"
1b
0`
1c
#25000
0!
0\
0]
#27500
1!
1\
1]
1;"
0<"
0b
19!
1d
1`
0c
0d
1f
1c
0e
0f
1e
1g
0g
#30000
0!
0\
0]
#32500
1!
1\
1]
1<"
1b
0`
1d
0c
1f
0e
1g
#35000
0!
0\
0]
#37500
1!
1\
1]
19"
0:"
0;"
0<"
1n
0b
09!
0d
0f
1h
1`
1c
1e
0g
0h
0c
0e
1g
1i
0i
#40000
0!
0\
0]
#42500
1!
1\
1]
1<"
0n
1b
0`
1c
#45000
0!
0\
0]
#47500
1!
1\
1]
1;"
0<"
1n
0b
19!
1d
1`
0c
0d
1:!
1c
1e
0e
#50000
0!
0\
0]
#52500
1!
1\
1]
1@"
09"
0;"
09!
0n
1z!
1y!
1t!
1s!
0o!
1n!
1i!
0h!
1d!
1c!
0Y!
1X!
0^
0c
0g
1=!
0:!
1a!
1Z!
0l!
0e!
1r!
1q!
1m!
1k!
1j!
1w!
1p!
0}!
0|!
0x!
0v!
0u!
0""
0{!
0(
0#
0,
0+
0)
0'
0&
1/
1*
13
12
10
1.
1-
06
01
1=
18
#55000
0!
0\
0]
#57500
1!
1\
1]
1<"
1b
0`
1c
#60000
0!
0\
0]
#62500
1!
1\
1]
1;"
0<"
0b
19!
1d
1`
0c
0d
1c
1e
0e
#65000
0!
0\
0]
#67500
1!
1\
1]
1<"
1b
0`
1d
0c
1e
#70000
0!
0\
0]
#72500
1!
1\
1]
1:"
0;"
0<"
0b
09!
0d
1f
1`
1c
0e
0f
0c
1e
1g
0g
#75000
0!
0\
0]
#77500
1!
1\
1]
1<"
1b
0`
1c
#80000
0!
0\
0]
#82500
1!
1\
1]
1;"
0<"
0b
19!
1d
1`
0c
0d
1f
1c
0e
0f
1e
1g
0g
#85000
0!
0\
0]
#87500
1!
1\
1]
1<"
1b
0`
1d
0c
1f
0e
1g
#90000
0!
0\
0]
#92500
1!
1\
1]
19"
0:"
0;"
0<"
1n
0b
09!
0d
0f
1h
1`
1c
1e
0g
0h
0c
0e
1g
1i
0i
#95000
0!
0\
0]
#97500
1!
1\
1]
1<"
0n
1b
0`
1c
#100000
0!
0\
0]
#102500
1!
1\
1]
1;"
0<"
1n
0b
19!
1d
1`
0c
0d
1:!
1c
1e
0e
#105000
0!
0\
0]
#107500
1!
1\
1]
1?"
0@"
09"
0;"
09!
0n
1o!
0n!
0i!
1h!
0d!
0c!
0^!
1]!
1Y!
0X!
0N!
1M!
1^
0c
0g
0:!
1V!
1O!
0a!
0Z!
1g!
1f!
1b!
1`!
1_!
1l!
1e!
0r!
0q!
0m!
0k!
0j!
0w!
0p!
0/
0*
03
02
00
0.
0-
16
11
1:
19
17
15
14
0=
08
1D
1?
#110000
0!
0\
0]
#112500
1!
1\
1]
1<"
1b
0`
1c
#115000
0!
0\
0]
#117500
1!
1\
1]
1;"
0<"
0b
19!
1d
1`
0c
0d
1c
1e
0e
#120000
0!
0\
0]
#122500
1!
1\
1]
1<"
1b
0`
1d
0c
1e
#125000
0!
0\
0]
#127500
1!
1\
1]
1:"
0;"
0<"
0b
09!
0d
1f
1`
1c
0e
0f
0c
1e
1g
0g
#130000
0!
0\
0]
#132500
1!
1\
1]
1<"
1b
0`
1c
#135000
0!
0\
0]
#137500
1!
1\
1]
1;"
0<"
0b
19!
1d
1`
0c
0d
1f
1c
0e
0f
1e
1g
0g
#140000
0!
0\
0]
#142500
1!
1\
1]
1<"
1b
0`
1d
0c
1f
0e
1g
#145000
0!
0\
0]
#147500
1!
1\
1]
19"
0:"
0;"
0<"
1n
0b
09!
0d
0f
1h
1`
1c
1e
0g
0h
0c
0e
1g
1i
0i
#150000
0!
0\
0]
#152500
1!
1\
1]
1<"
0n
1b
0`
1c
#155000
0!
0\
0]
#157500
1!
1\
1]
1;"
0<"
1n
0b
19!
1d
1`
0c
0d
1:!
1c
1e
0e
#160000
0!
0\
0]
#162500
1!
1\
1]
1@"
09"
0;"
09!
0n
1d!
1c!
1^!
0]!
0Y!
1X!
1S!
0R!
1N!
0M!
1C!
0B!
0^
0c
0g
0=!
1;!
0:!
1K!
1D!
0V!
0O!
1\!
1[!
1W!
1U!
1T!
1a!
1Z!
0g!
0f!
0b!
0`!
0_!
0l!
0e!
06
01
0:
09
07
05
04
1=
18
1A
1@
1>
1<
1;
0D
0?
1K
1F
#165000
0!
0\
0]
#167500
1!
1\
1]
1<"
1b
0`
1c
#170000
0!
0\
0]
#172500
1!
1\
1]
1;"
0<"
0b
19!
1d
1`
0c
0d
1c
1e
0e
#175000
0!
0\
0]
#177500
1!
1\
1]
1<"
1b
0`
1d
0c
1e
#180000
0!
0\
0]
#182500
1!
1\
1]
1:"
0;"
0<"
0b
09!
0d
1f
1`
1c
0e
0f
0c
1e
1g
0g
#185000
0!
0\
0]
#187500
1!
1\
1]
1<"
1b
0`
1c
#190000
0!
0\
0]
#192500
1!
1\
1]
1;"
0<"
0b
19!
1d
1`
0c
0d
1f
1c
0e
0f
1e
1g
0g
#195000
0!
0\
0]
#197500
1!
1\
1]
1<"
1b
0`
1d
0c
1f
0e
1g
#200000
0!
0\
0]
#202500
1!
1\
1]
19"
0:"
0;"
0<"
1n
0b
09!
0d
0f
1h
1`
1c
1e
0g
0h
0c
0e
1g
1i
0i
#205000
0!
0\
0]
#207500
1!
1\
1]
1<"
0n
1b
0`
1c
#210000
0!
0\
0]
#212500
1!
1\
1]
1;"
0<"
1n
0b
19!
1d
1`
0c
0d
1:!
1c
1e
0e
#215000
0!
0\
0]
#217500
1!
1\
1]
1>!
0?"
1>"
0@"
09"
0;"
09!
0n
0z!
0y!
1Y!
0X!
0S!
1R!
0N!
1M!
1H!
0G!
0C!
1B!
1^
0c
0g
0:!
0K!
0D!
1Q!
1P!
1L!
1J!
1I!
1V!
1O!
0\!
0[!
0W!
0U!
0T!
0a!
0Z!
1""
1{!
1(
1#
0=
08
0A
0@
0>
0<
0;
1D
1?
1H
1G
1E
1C
1B
0K
0F
#220000
0!
0\
0]
#222500
1!
1\
1]
1<"
1b
0`
1c
#225000
0!
0\
0]
#227500
1!
1\
1]
1;"
0<"
0b
19!
1d
1`
0c
0d
1c
1e
0e
#230000
0!
0\
0]
#232500
1!
1\
1]
1<"
1b
0`
1d
0c
1e
#235000
0!
0\
0]
#237500
1!
1\
1]
1:"
0;"
0<"
0b
09!
0d
1f
1`
1c
0e
0f
0c
1e
1g
0g
#240000
0!
0\
0]
#242500
1!
1\
1]
1<"
1b
0`
1c
#245000
0!
0\
0]
#247500
1!
1\
1]
1;"
0<"
0b
19!
1d
1`
0c
0d
1f
1c
0e
0f
1e
1g
0g
#250000
0!
0\
0]
#252500
1!
1\
1]
1<"
1b
0`
1d
0c
1f
0e
1g
#255000
0!
0\
0]
#257500
1!
1\
1]
19"
0:"
0;"
0<"
1n
0b
09!
0d
0f
1h
1`
1c
1e
0g
0h
0c
0e
1g
1i
0i
#260000
0!
0\
0]
#262500
1!
1\
1]
1<"
0n
1b
0`
1c
#265000
0!
0\
0]
#267500
1!
1\
1]
1;"
0<"
1n
0b
19!
1d
1`
0c
0d
1:!
1c
1e
0e
#270000
0!
0\
0]
#272500
1!
1\
1]
1@"
09"
0;"
09!
0n
1z!
1y!
0o!
1n!
1N!
0M!
0H!
1G!
1C!
0B!
1@!
0?!
0^
0c
0g
0;!
0:!
1!"
1~!
1F!
1E!
1A!
1K!
1D!
0Q!
0P!
0L!
0J!
0I!
0V!
0O!
1w!
1p!
0""
0{!
0(
0#
1/
1*
0D
0?
0H
0G
0E
0C
0B
1K
1F
1L
1J
1I
1%
1$
#275000
0!
0\
0]
#277500
1!
1\
1]
1<"
1b
0`
1c
#280000
0!
0\
0]
#282500
1!
1\
1]
1;"
0<"
0b
19!
1d
1`
0c
0d
1c
1e
0e
#285000
0!
0\
0]
#287500
1!
1\
1]
1<"
1b
0`
1d
0c
1e
#290000
0!
0\
0]
#292500
1!
1\
1]
1:"
0;"
0<"
0b
09!
0d
1f
1`
1c
0e
0f
0c
1e
1g
0g
#295000
0!
0\
0]
#297500
1!
1\
1]
1<"
1b
0`
1c
#300000
0!
0\
0]
#302500
1!
1\
1]
1;"
0<"
0b
19!
1d
1`
0c
0d
1f
1c
0e
0f
1e
1g
0g
#305000
0!
0\
0]
#307500
1!
1\
1]
1<"
1b
0`
1d
0c
1f
0e
1g
#310000
0!
0\
0]
#312500
1!
1\
1]
19"
0:"
0;"
0<"
1n
0b
09!
0d
0f
1h
1`
1c
1e
0g
0h
0c
0e
1g
1i
0i
#315000
0!
0\
0]
#317500
1!
1\
1]
1<"
0n
1b
0`
1c
#320000
0!
0\
0]
#322500
1!
1\
1]
1;"
0<"
1n
0b
19!
1d
1`
0c
0d
1:!
1c
1e
0e
#325000
0!
0\
0]
#327500
1!
1\
1]
0>!
0>"
0@"
09"
0;"
09!
0n
0z!
0y!
0t!
0s!
1o!
0n!
0d!
0c!
0C!
1B!
0@!
1?!
1^
0c
0g
0:!
0!"
0~!
0F!
0E!
0A!
0K!
0D!
1l!
1e!
0w!
0p!
1}!
1|!
1x!
1v!
1u!
1""
1{!
1(
1#
1,
1+
1)
1'
1&
0/
0*
16
11
0K
0F
0L
0J
0I
0%
0$
#330000
0!
0\
0]
#332500
1!
1\
1]
1<"
1b
0`
1c
#335000
0!
0\
0]
#337500
1!
1\
1]
1;"
0<"
0b
19!
1d
1`
0c
0d
1c
1e
0e
#340000
0!
0\
0]
#342500
1!
1\
1]
1<"
1b
0`
1d
0c
1e
#345000
0!
0\
0]
#347500
1!
1\
1]
1:"
0;"
0<"
0b
09!
0d
1f
1`
1c
0e
0f
0c
1e
1g
0g
#350000
0!
0\
0]
#352500
1!
1\
1]
1<"
1b
0`
1c
#355000
0!
0\
0]
#357500
1!
1\
1]
1;"
0<"
0b
19!
1d
1`
0c
0d
1f
1c
0e
0f
1e
1g
0g
#360000
0!
0\
0]
#362500
1!
1\
1]
1<"
1b
0`
1d
0c
1f
0e
1g
#365000
0!
0\
0]
#367500
1!
1\
1]
19"
0:"
0;"
0<"
1n
0b
09!
0d
0f
1h
1`
1c
1e
0g
0h
0c
0e
1g
1i
0i
#370000
0!
0\
0]
#372500
1!
1\
1]
1<"
0n
1b
0`
1c
#375000
0!
0\
0]
#377500
1!
1\
1]
1;"
0<"
1n
0b
19!
1d
1`
0c
0d
1:!
1c
1e
0e
#380000
0!
0\
0]
#382500
1!
1\
1]
1@"
09"
0;"
09!
0n
1z!
1y!
1t!
1s!
0o!
1n!
1i!
0h!
1d!
1c!
0Y!
1X!
0^
0c
0g
1=!
0:!
1a!
1Z!
0l!
0e!
1r!
1q!
1m!
1k!
1j!
1w!
1p!
0}!
0|!
0x!
0v!
0u!
0""
0{!
0(
0#
0,
0+
0)
0'
0&
1/
1*
13
12
10
1.
1-
06
01
1=
18
#385000
0!
0\
0]
#387500
1!
1\
1]
1<"
1b
0`
1c
#390000
0!
0\
0]
#392500
1!
1\
1]
1;"
0<"
0b
19!
1d
1`
0c
0d
1c
1e
0e
#395000
0!
0\
0]
#397500
1!
1\
1]
1<"
1b
0`
1d
0c
1e
#400000
0!
0\
0]
#402500
1!
1\
1]
1:"
0;"
0<"
0b
09!
0d
1f
1`
1c
0e
0f
0c
1e
1g
0g
#405000
0!
0\
0]
#407500
1!
1\
1]
1<"
1b
0`
1c
#410000
0!
0\
0]
#412500
1!
1\
1]
1;"
0<"
0b
19!
1d
1`
0c
0d
1f
1c
0e
0f
1e
1g
0g
#415000
0!
0\
0]
#417500
1!
1\
1]
1<"
1b
0`
1d
0c
1f
0e
1g
#420000
0!
0\
0]
#422500
1!
1\
1]
19"
0:"
0;"
0<"
1n
0b
09!
0d
0f
1h
1`
1c
1e
0g
0h
0c
0e
1g
1i
0i
#425000
0!
0\
0]
#427500
1!
1\
1]
1<"
0n
1b
0`
1c
#430000
0!
0\
0]
#432500
1!
1\
1]
1;"
0<"
1n
0b
19!
1d
1`
0c
0d
1:!
1c
1e
0e
#435000
0!
0\
0]
#437500
1!
1\
1]
1?"
0@"
09"
0;"
09!
0n
1o!
0n!
0i!
1h!
0d!
0c!
0^!
1]!
1Y!
0X!
0N!
1M!
1^
0c
0g
0:!
1V!
1O!
0a!
0Z!
1g!
1f!
1b!
1`!
1_!
1l!
1e!
0r!
0q!
0m!
0k!
0j!
0w!
0p!
0/
0*
03
02
00
0.
0-
16
11
1:
19
17
15
14
0=
08
1D
1?
#440000
0!
0\
0]
#442500
1!
1\
1]
1<"
1b
0`
1c
#445000
0!
0\
0]
#447500
1!
1\
1]
1;"
0<"
0b
19!
1d
1`
0c
0d
1c
1e
0e
#450000
0!
0\
0]
#452500
1!
1\
1]
1<"
1b
0`
1d
0c
1e
#455000
0!
0\
0]
#457500
1!
1\
1]
1:"
0;"
0<"
0b
09!
0d
1f
1`
1c
0e
0f
0c
1e
1g
0g
#460000
0!
0\
0]
#462500
1!
1\
1]
1<"
1b
0`
1c
#465000
0!
0\
0]
#467500
1!
1\
1]
1;"
0<"
0b
19!
1d
1`
0c
0d
1f
1c
0e
0f
1e
1g
0g
#470000
0!
0\
0]
#472500
1!
1\
1]
1<"
1b
0`
1d
0c
1f
0e
1g
#475000
0!
0\
0]
#477500
1!
1\
1]
19"
0:"
0;"
0<"
1n
0b
09!
0d
0f
1h
1`
1c
1e
0g
0h
0c
0e
1g
1i
0i
#480000
0!
0\
0]
#482500
1!
1\
1]
1<"
0n
1b
0`
1c
#485000
0!
0\
0]
#487500
1!
1\
1]
1;"
0<"
1n
0b
19!
1d
1`
0c
0d
1:!
1c
1e
0e
#490000
0!
0\
0]
#492500
1!
1\
1]
1@"
09"
0;"
09!
0n
1d!
1c!
1^!
0]!
0Y!
1X!
1S!
0R!
1N!
0M!
1C!
0B!
0^
0c
0g
0=!
1;!
0:!
1K!
1D!
0V!
0O!
1\!
1[!
1W!
1U!
1T!
1a!
1Z!
0g!
0f!
0b!
0`!
0_!
0l!
0e!
06
01
0:
09
07
05
04
1=
18
1A
1@
1>
1<
1;
0D
0?
1K
1F
#495000
0!
0\
0]
#497500
1!
1\
1]
1<"
1b
0`
1c
#500000
0!
0\
0]
#502500
1!
1\
1]
1;"
0<"
0b
19!
1d
1`
0c
0d
1c
1e
0e
#505000
0!
0\
0]
#507500
1!
1\
1]
1<"
1b
0`
1d
0c
1e
#510000
0!
0\
0]
#512500
1!
1\
1]
1:"
0;"
0<"
0b
09!
0d
1f
1`
1c
0e
0f
0c
1e
1g
0g
#515000
0!
0\
0]
#517500
1!
1\
1]
1<"
1b
0`
1c
#520000
0!
0\
0]
#522500
1!
1\
1]
1;"
0<"
0b
19!
1d
1`
0c
0d
1f
1c
0e
0f
1e
1g
0g
#525000
0!
0\
0]
#527500
1!
1\
1]
1<"
1b
0`
1d
0c
1f
0e
1g
#530000
0!
0\
0]
#532500
1!
1\
1]
19"
0:"
0;"
0<"
1n
0b
09!
0d
0f
1h
1`
1c
1e
0g
0h
0c
0e
1g
1i
0i
#535000
0!
0\
0]
#537500
1!
1\
1]
1<"
0n
1b
0`
1c
#540000
0!
0\
0]
#542500
1!
1\
1]
1;"
0<"
1n
0b
19!
1d
1`
0c
0d
1:!
1c
1e
0e
#545000
0!
0\
0]
#547500
1!
1\
1]
1>!
0?"
1>"
0@"
09"
0;"
09!
0n
0z!
0y!
1Y!
0X!
0S!
1R!
0N!
1M!
1H!
0G!
0C!
1B!
1^
0c
0g
0:!
0K!
0D!
1Q!
1P!
1L!
1J!
1I!
1V!
1O!
0\!
0[!
0W!
0U!
0T!
0a!
0Z!
1""
1{!
1(
1#
0=
08
0A
0@
0>
0<
0;
1D
1?
1H
1G
1E
1C
1B
0K
0F
#550000
0!
0\
0]
#552500
1!
1\
1]
1<"
1b
0`
1c
#555000
0!
0\
0]
#557500
1!
1\
1]
1;"
0<"
0b
19!
1d
1`
0c
0d
1c
1e
0e
#560000
0!
0\
0]
#562500
1!
1\
1]
1<"
1b
0`
1d
0c
1e
#565000
0!
0\
0]
#567500
1!
1\
1]
1:"
0;"
0<"
0b
09!
0d
1f
1`
1c
0e
0f
0c
1e
1g
0g
#570000
0!
0\
0]
#572500
1!
1\
1]
1<"
1b
0`
1c
#575000
0!
0\
0]
#577500
1!
1\
1]
1;"
0<"
0b
19!
1d
1`
0c
0d
1f
1c
0e
0f
1e
1g
0g
#580000
0!
0\
0]
#582500
1!
1\
1]
1<"
1b
0`
1d
0c
1f
0e
1g
#585000
0!
0\
0]
#587500
1!
1\
1]
19"
0:"
0;"
0<"
1n
0b
09!
0d
0f
1h
1`
1c
1e
0g
0h
0c
0e
1g
1i
0i
#590000
0!
0\
0]
#592500
1!
1\
1]
1<"
0n
1b
0`
1c
#595000
0!
0\
0]
#597500
1!
1\
1]
1;"
0<"
1n
0b
19!
1d
1`
0c
0d
1:!
1c
1e
0e
#600000
0!
0\
0]
#602500
1!
1\
1]
1@"
09"
0;"
09!
0n
1z!
1y!
0o!
1n!
1N!
0M!
0H!
1G!
1C!
0B!
1@!
0?!
0^
0c
0g
0;!
0:!
1!"
1~!
1F!
1E!
1A!
1K!
1D!
0Q!
0P!
0L!
0J!
0I!
0V!
0O!
1w!
1p!
0""
0{!
0(
0#
1/
1*
0D
0?
0H
0G
0E
0C
0B
1K
1F
1L
1J
1I
1%
1$
#605000
0!
0\
0]
#607500
1!
1\
1]
1<"
1b
0`
1c
#610000
0!
0\
0]
#612500
1!
1\
1]
1;"
0<"
0b
19!
1d
1`
0c
0d
1c
1e
0e
#615000
0!
0\
0]
#617500
1!
1\
1]
1<"
1b
0`
1d
0c
1e
#620000
0!
0\
0]
#622500
1!
1\
1]
1:"
0;"
0<"
0b
09!
0d
1f
1`
1c
0e
0f
0c
1e
1g
0g
#625000
0!
0\
0]
#627500
1!
1\
1]
1<"
1b
0`
1c
#630000
0!
0\
0]
#632500
1!
1\
1]
1;"
0<"
0b
19!
1d
1`
0c
0d
1f
1c
0e
0f
1e
1g
0g
#635000
0!
0\
0]
#637500
1!
1\
1]
1<"
1b
0`
1d
0c
1f
0e
1g
#640000
0!
0\
0]
